******************************************************
Verifying results
bagm-mute-7-point 2x3 jam Kernel:
     NORM:                   L1                   L2
349531.200000         4.572867e+08
Reference: 
349531.200000         4.572867e+08
******************************************************
******************************************************
TEST#01 time: 2.344788e-06
TEST#02 time: 2.334294e-06
TEST#03 time: 2.330706e-06
******************************************************Rank 0 of 4 <0,0,0,0>  R00-M1-N10-J23: Participating process 0 of 4
Rank 3 of 4 <0,0,0,3>  R00-M1-N10-J23: Participating process 3 of 4
Rank 2 of 4 <0,0,0,2>  R00-M1-N10-J23: Participating process 2 of 4
Rank 1 of 4 <0,0,0,1>  R00-M1-N10-J23: Participating process 1 of 4
******************************************************
Actions: 
L3 flushed: 0
L1 flushed: 0
L1 touched: 0

******************************************************
[bagm-mute-7-point 2x3 jam Kernel]
Jams in i: 2
Jams in j: 3
Number of tests    3
Number of stencils 288
Ni: 4 Nj: 14 Nk: 14 
Total memory allocation ~ 12544 B
total flops:       3.744000e-06 G 
total time(s)    : 7.009788e-06
time/test(s)     : 2.336596e-06
******************************************************
******************************************************
******************************************************
GFlop/s     AVG: 1.602331e+00  
MStencil/s  AVG: 123.256220  
******************************************************
GFlop/s     MAX: 1.606380e+00  
MStencil/s  MAX: 123.567715  
******************************************************
GFlop/s     MIN: 1.596733e+00  
MStencil/s  MIN: 122.825591  
******************************************************
******************************************************
Verifying results
bagm-mute-7-point 2x3 jam Kernel:
     NORM:                   L1                   L2
14481216.000000         1.043840e+11
Reference: 
14481216.000000         1.043840e+11
******************************************************
******************************************************
TEST#01 time: 1.962112e-05
TEST#02 time: 1.792586e-05
TEST#03 time: 1.723381e-05
******************************************************Rank 0 of 4 <0,0,0,0>  R00-M1-N10-J23: Participating process 0 of 4
Rank 3 of 4 <0,0,0,3>  R00-M1-N10-J23: Participating process 3 of 4
Rank 1 of 4 <0,0,0,1>  R00-M1-N10-J23: Participating process 1 of 4
Rank 2 of 4 <0,0,0,2>  R00-M1-N10-J23: Participating process 2 of 4
******************************************************
Actions: 
L3 flushed: 0
L1 flushed: 0
L1 touched: 0

******************************************************
[bagm-mute-7-point 2x3 jam Kernel]
Jams in i: 2
Jams in j: 3
Number of tests    3
Number of stencils 2304
Ni: 6 Nj: 26 Nk: 26 
Total memory allocation ~ 64896 B
total flops:       2.995200e-05 G 
total time(s)    : 5.478079e-05
time/test(s)     : 1.826026e-05
******************************************************
******************************************************
******************************************************
GFlop/s     AVG: 1.640283e+00  
MStencil/s  AVG: 126.175621  
******************************************************
GFlop/s     MAX: 1.737979e+00  
MStencil/s  MAX: 133.690679  
******************************************************
GFlop/s     MIN: 1.526519e+00  
MStencil/s  MIN: 117.424504  
******************************************************
******************************************************
Verifying results
bagm-mute-7-point 2x3 jam Kernel:
     NORM:                   L1                   L2
232040505.600000         6.299425e+12
Reference: 
232040505.600000         6.299425e+12
******************************************************
******************************************************
TEST#01 time: 1.627690e-04
TEST#02 time: 1.627595e-04
TEST#03 time: 1.623924e-04
******************************************************Rank 0 of 4 <0,0,0,0>  R00-M1-N10-J23: Participating process 0 of 4
Rank 3 of 4 <0,0,0,3>  R00-M1-N10-J23: Participating process 3 of 4
Rank 1 of 4 <0,0,0,1>  R00-M1-N10-J23: Participating process 1 of 4
Rank 2 of 4 <0,0,0,2>  R00-M1-N10-J23: Participating process 2 of 4
******************************************************
Actions: 
L3 flushed: 0
L1 flushed: 0
L1 touched: 0

******************************************************
[bagm-mute-7-point 2x3 jam Kernel]
Jams in i: 2
Jams in j: 3
Number of tests    3
Number of stencils 10368
Ni: 10 Nj: 38 Nk: 38 
Total memory allocation ~ 231040 B
total flops:       1.347840e-04 G 
total time(s)    : 4.879209e-04
time/test(s)     : 1.626403e-04
******************************************************
******************************************************
******************************************************
GFlop/s     AVG: 8.287245e-01  
MStencil/s  AVG: 63.748036  
******************************************************
GFlop/s     MAX: 8.299895e-01  
MStencil/s  MAX: 63.845348  
******************************************************
GFlop/s     MIN: 8.280692e-01  
MStencil/s  MIN: 63.697633  
******************************************************
******************************************************
Verifying results
bagm-mute-7-point 2x3 jam Kernel:
     NORM:                   L1                   L2
1071324288.000006         6.133787e+13
Reference: 
1071324288.000006         6.133787e+13
******************************************************
******************************************************
TEST#01 time: 3.601151e-04
TEST#02 time: 3.598157e-04
TEST#03 time: 3.591777e-04
******************************************************Rank 0 of 4 <0,0,0,0>  R00-M1-N10-J23: Participating process 0 of 4
Rank 2 of 4 <0,0,0,2>  R00-M1-N10-J23: Participating process 2 of 4
Rank 1 of 4 <0,0,0,1>  R00-M1-N10-J23: Participating process 1 of 4
Rank 3 of 4 <0,0,0,3>  R00-M1-N10-J23: Participating process 3 of 4
******************************************************
Actions: 
L3 flushed: 0
L1 flushed: 0
L1 touched: 0

******************************************************
[bagm-mute-7-point 2x3 jam Kernel]
Jams in i: 2
Jams in j: 3
Number of tests    3
Number of stencils 23040
Ni: 12 Nj: 50 Nk: 50 
Total memory allocation ~ 480000 B
total flops:       2.995200e-04 G 
total time(s)    : 1.079109e-03
time/test(s)     : 3.597028e-04
******************************************************
******************************************************
******************************************************
GFlop/s     AVG: 8.326873e-01  
MStencil/s  AVG: 64.052872  
******************************************************
GFlop/s     MAX: 8.339047e-01  
MStencil/s  MAX: 64.146516  
******************************************************
GFlop/s     MIN: 8.317340e-01  
MStencil/s  MIN: 63.979541  
******************************************************
******************************************************
Verifying results
bagm-mute-7-point 2x3 jam Kernel:
     NORM:                   L1                   L2
4804614360.000000         5.748792e+14
Reference: 
4804614360.000000         5.748792e+14
******************************************************
******************************************************
TEST#01 time: 7.752395e-04
TEST#02 time: 7.750580e-04
TEST#03 time: 7.746201e-04
******************************************************Rank 0 of 4 <0,0,0,0>  R00-M1-N10-J23: Participating process 0 of 4
Rank 2 of 4 <0,0,0,2>  R00-M1-N10-J23: Participating process 2 of 4
Rank 1 of 4 <0,0,0,1>  R00-M1-N10-J23: Participating process 1 of 4
Rank 3 of 4 <0,0,0,3>  R00-M1-N10-J23: Participating process 3 of 4
******************************************************
Actions: 
L3 flushed: 0
L1 flushed: 0
L1 touched: 0

******************************************************
[bagm-mute-7-point 2x3 jam Kernel]
Jams in i: 2
Jams in j: 3
Number of tests    3
Number of stencils 50400
Ni: 16 Nj: 62 Nk: 62 
Total memory allocation ~ 984064 B
total flops:       6.552000e-04 G 
total time(s)    : 2.324918e-03
time/test(s)     : 7.749725e-04
******************************************************
******************************************************
******************************************************
GFlop/s     AVG: 8.454493e-01  
MStencil/s  AVG: 65.034563  
******************************************************
GFlop/s     MAX: 8.458340e-01  
MStencil/s  MAX: 65.064152  
******************************************************
GFlop/s     MIN: 8.451582e-01  
MStencil/s  MIN: 65.012167  
******************************************************
******************************************************
Verifying results
bagm-mute-7-point 2x3 jam Kernel:
     NORM:                   L1                   L2
12672088934.400000         2.445831e+15
Reference: 
12672088934.400000         2.445831e+15
******************************************************
******************************************************
TEST#01 time: 1.275415e-03
TEST#02 time: 1.275459e-03
TEST#03 time: 1.276482e-03
******************************************************Rank 0 of 4 <0,0,0,0>  R00-M1-N10-J23: Participating process 0 of 4
Rank 2 of 4 <0,0,0,2>  R00-M1-N10-J23: Participating process 2 of 4
Rank 1 of 4 <0,0,0,1>  R00-M1-N10-J23: Participating process 1 of 4
Rank 3 of 4 <0,0,0,3>  R00-M1-N10-J23: Participating process 3 of 4
******************************************************
Actions: 
L3 flushed: 0
L1 flushed: 0
L1 touched: 0

******************************************************
[bagm-mute-7-point 2x3 jam Kernel]
Jams in i: 2
Jams in j: 3
Number of tests    3
Number of stencils 82944
Ni: 18 Nj: 74 Nk: 74 
Total memory allocation ~ 1577088 B
total flops:       1.078272e-03 G 
total time(s)    : 3.827357e-03
time/test(s)     : 1.275786e-03
******************************************************
******************************************************
******************************************************
GFlop/s     AVG: 8.451828e-01  
MStencil/s  AVG: 65.014061  
******************************************************
GFlop/s     MAX: 8.454284e-01  
MStencil/s  MAX: 65.032955  
******************************************************
GFlop/s     MIN: 8.447214e-01  
MStencil/s  MIN: 64.978566  
******************************************************
******************************************************
Verifying results
bagm-mute-7-point 2x3 jam Kernel:
     NORM:                   L1                   L2
35590753296.000000         1.144855e+16
Reference: 
35590753296.000000         1.144855e+16
******************************************************
******************************************************
TEST#01 time: 2.209463e-03
TEST#02 time: 2.209583e-03
TEST#03 time: 2.200648e-03
******************************************************Rank 0 of 4 <0,0,0,0>  R00-M1-N10-J23: Participating process 0 of 4
Rank 3 of 4 <0,0,0,3>  R00-M1-N10-J23: Participating process 3 of 4
Rank 2 of 4 <0,0,0,2>  R00-M1-N10-J23: Participating process 2 of 4
Rank 1 of 4 <0,0,0,1>  R00-M1-N10-J23: Participating process 1 of 4
******************************************************
Actions: 
L3 flushed: 0
L1 flushed: 0
L1 touched: 0

******************************************************
[bagm-mute-7-point 2x3 jam Kernel]
Jams in i: 2
Jams in j: 3
Number of tests    3
Number of stencils 141120
Ni: 22 Nj: 86 Nk: 86 
Total memory allocation ~ 2603392 B
total flops:       1.834560e-03 G 
total time(s)    : 6.619695e-03
time/test(s)     : 2.206565e-03
******************************************************
******************************************************
******************************************************
GFlop/s     AVG: 8.314099e-01  
MStencil/s  AVG: 63.954611  
******************************************************
GFlop/s     MAX: 8.336453e-01  
MStencil/s  MAX: 64.126560  
******************************************************
GFlop/s     MIN: 8.302743e-01  
MStencil/s  MIN: 63.867252  
******************************************************
******************************************************
Verifying results
bagm-mute-7-point 2x3 jam Kernel:
     NORM:                   L1                   L2
72436649472.000000         3.312728e+16
Reference: 
72436649472.000000         3.312728e+16
******************************************************
******************************************************
TEST#01 time: 3.378333e-03
TEST#02 time: 3.380790e-03
TEST#03 time: 3.380822e-03
******************************************************Rank 0 of 4 <0,0,0,0>  R00-M1-N10-J23: Participating process 0 of 4
Rank 3 of 4 <0,0,0,3>  R00-M1-N10-J23: Participating process 3 of 4
Rank 1 of 4 <0,0,0,1>  R00-M1-N10-J23: Participating process 1 of 4
Rank 2 of 4 <0,0,0,2>  R00-M1-N10-J23: Participating process 2 of 4
******************************************************
Actions: 
L3 flushed: 0
L1 flushed: 0
L1 touched: 0

******************************************************
[bagm-mute-7-point 2x3 jam Kernel]
Jams in i: 2
Jams in j: 3
Number of tests    3
Number of stencils 202752
Ni: 24 Nj: 98 Nk: 98 
Total memory allocation ~ 3687936 B
total flops:       2.635776e-03 G 
total time(s)    : 1.013994e-02
time/test(s)     : 3.379982e-03
******************************************************
******************************************************
******************************************************
GFlop/s     AVG: 7.798196e-01  
MStencil/s  AVG: 59.986125  
******************************************************
GFlop/s     MAX: 7.802003e-01  
MStencil/s  MAX: 60.015405  
******************************************************
GFlop/s     MIN: 7.796258e-01  
MStencil/s  MIN: 59.971212  
******************************************************
******************************************************
Verifying results
bagm-mute-7-point 2x3 jam Kernel:
     NORM:                   L1                   L2
159255586900.804779         1.076670e+17
Reference: 
159255586900.804779         1.076670e+17
******************************************************
******************************************************
TEST#01 time: 4.903806e-03
TEST#02 time: 4.906393e-03
TEST#03 time: 4.907976e-03
******************************************************Rank 0 of 4 <0,0,0,0>  R00-M1-N10-J23: Participating process 0 of 4
Rank 3 of 4 <0,0,0,3>  R00-M1-N10-J23: Participating process 3 of 4
Rank 2 of 4 <0,0,0,2>  R00-M1-N10-J23: Participating process 2 of 4
Rank 1 of 4 <0,0,0,1>  R00-M1-N10-J23: Participating process 1 of 4
******************************************************
Actions: 
L3 flushed: 0
L1 flushed: 0
L1 touched: 0

******************************************************
[bagm-mute-7-point 2x3 jam Kernel]
Jams in i: 2
Jams in j: 3
Number of tests    3
Number of stencils 303264
Ni: 28 Nj: 110 Nk: 110 
Total memory allocation ~ 5420800 B
total flops:       3.942432e-03 G 
total time(s)    : 1.471817e-02
time/test(s)     : 4.906058e-03
******************************************************
******************************************************
******************************************************
GFlop/s     AVG: 8.035844e-01  
MStencil/s  AVG: 61.814187  
******************************************************
GFlop/s     MAX: 8.039536e-01  
MStencil/s  MAX: 61.842582  
******************************************************
GFlop/s     MIN: 8.032705e-01  
MStencil/s  MIN: 61.790036  
******************************************************
******************************************************
Verifying results
bagm-mute-7-point 2x3 jam Kernel:
     NORM:                   L1                   L2
279056514240.000000         2.492152e+17
Reference: 
279056514240.000000         2.492152e+17
******************************************************
******************************************************
TEST#01 time: 6.536501e-03
TEST#02 time: 6.544779e-03
TEST#03 time: 6.533878e-03
******************************************************Rank 0 of 4 <0,0,0,0>  R00-M1-N10-J23: Participating process 0 of 4
Rank 2 of 4 <0,0,0,2>  R00-M1-N10-J23: Participating process 2 of 4
Rank 3 of 4 <0,0,0,3>  R00-M1-N10-J23: Participating process 3 of 4
Rank 1 of 4 <0,0,0,1>  R00-M1-N10-J23: Participating process 1 of 4
******************************************************
Actions: 
L3 flushed: 0
L1 flushed: 0
L1 touched: 0

******************************************************
[bagm-mute-7-point 2x3 jam Kernel]
Jams in i: 2
Jams in j: 3
Number of tests    3
Number of stencils 403200
Ni: 30 Nj: 122 Nk: 122 
Total memory allocation ~ 7144320 B
total flops:       5.241600e-03 G 
total time(s)    : 1.961516e-02
time/test(s)     : 6.538386e-03
******************************************************
******************************************************
******************************************************
GFlop/s     AVG: 8.016657e-01  
MStencil/s  AVG: 61.666595  
******************************************************
GFlop/s     MAX: 8.022188e-01  
MStencil/s  MAX: 61.709139  
******************************************************
GFlop/s     MIN: 8.008827e-01  
MStencil/s  MIN: 61.606362  
******************************************************
******************************************************
Verifying results
bagm-mute-7-point 2x3 jam Kernel:
     NORM:                   L1                   L2
527615251891.200073         6.466882e+17
Reference: 
527615251891.200073         6.466882e+17
******************************************************
******************************************************
TEST#01 time: 8.835207e-03
TEST#02 time: 8.848542e-03
TEST#03 time: 8.844959e-03
******************************************************Rank 0 of 4 <0,0,0,0>  R00-M1-N10-J23: Participating process 0 of 4
Rank 3 of 4 <0,0,0,3>  R00-M1-N10-J23: Participating process 3 of 4
Rank 1 of 4 <0,0,0,1>  R00-M1-N10-J23: Participating process 1 of 4
Rank 2 of 4 <0,0,0,2>  R00-M1-N10-J23: Participating process 2 of 4
******************************************************
Actions: 
L3 flushed: 0
L1 flushed: 0
L1 touched: 0

******************************************************
[bagm-mute-7-point 2x3 jam Kernel]
Jams in i: 2
Jams in j: 3
Number of tests    3
Number of stencils 557568
Ni: 34 Nj: 134 Nk: 134 
Total memory allocation ~ 9768064 B
total flops:       7.248384e-03 G 
total time(s)    : 2.652871e-02
time/test(s)     : 8.842903e-03
******************************************************
******************************************************
******************************************************
GFlop/s     AVG: 8.196838e-01  
MStencil/s  AVG: 63.052599  
******************************************************
GFlop/s     MAX: 8.203978e-01  
MStencil/s  MAX: 63.107520  
******************************************************
GFlop/s     MIN: 8.191613e-01  
MStencil/s  MIN: 63.012411  
******************************************************
******************************************************
Verifying results
bagm-mute-7-point 2x3 jam Kernel:
     NORM:                   L1                   L2
838577577600.000000         1.293985e+18
Reference: 
838577577600.000000         1.293985e+18
******************************************************
******************************************************
TEST#01 time: 1.129928e-02
TEST#02 time: 1.131484e-02
TEST#03 time: 1.130052e-02
******************************************************Rank 0 of 4 <0,0,0,0>  R00-M1-N10-J23: Participating process 0 of 4
Rank 3 of 4 <0,0,0,3>  R00-M1-N10-J23: Participating process 3 of 4
Rank 1 of 4 <0,0,0,1>  R00-M1-N10-J23: Participating process 1 of 4
Rank 2 of 4 <0,0,0,2>  R00-M1-N10-J23: Participating process 2 of 4
******************************************************
Actions: 
L3 flushed: 0
L1 flushed: 0
L1 touched: 0

******************************************************
[bagm-mute-7-point 2x3 jam Kernel]
Jams in i: 2
Jams in j: 3
Number of tests    3
Number of stencils 705024
Ni: 36 Nj: 146 Nk: 146 
Total memory allocation ~ 12278016 B
total flops:       9.165312e-03 G 
total time(s)    : 3.391464e-02
time/test(s)     : 1.130488e-02
******************************************************
******************************************************
******************************************************
GFlop/s     AVG: 8.107393e-01  
MStencil/s  AVG: 62.364565  
******************************************************
GFlop/s     MAX: 8.111410e-01  
MStencil/s  MAX: 62.395463  
******************************************************
GFlop/s     MIN: 8.100259e-01  
MStencil/s  MIN: 62.309686  
******************************************************
******************************************************
Verifying results
bagm-mute-7-point 2x3 jam Kernel:
     NORM:                   L1                   L2
1431324884433.599854         2.881799e+18
Reference: 
1431324884433.599854         2.881799e+18
******************************************************
******************************************************
TEST#01 time: 1.487719e-02
TEST#02 time: 1.483726e-02
TEST#03 time: 1.481474e-02
******************************************************Rank 0 of 4 <0,0,0,0>  R00-M1-N10-J23: Participating process 0 of 4
Rank 2 of 4 <0,0,0,2>  R00-M1-N10-J23: Participating process 2 of 4
Rank 1 of 4 <0,0,0,1>  R00-M1-N10-J23: Participating process 1 of 4
Rank 3 of 4 <0,0,0,3>  R00-M1-N10-J23: Participating process 3 of 4
******************************************************
Actions: 
L3 flushed: 0
L1 flushed: 0
L1 touched: 0

******************************************************
[bagm-mute-7-point 2x3 jam Kernel]
Jams in i: 2
Jams in j: 3
Number of tests    3
Number of stencils 924768
Ni: 40 Nj: 158 Nk: 158 
Total memory allocation ~ 15976960 B
total flops:       1.202198e-02 G 
total time(s)    : 4.452919e-02
time/test(s)     : 1.484306e-02
******************************************************
******************************************************
******************************************************
GFlop/s     AVG: 8.099395e-01  
MStencil/s  AVG: 62.303041  
******************************************************
GFlop/s     MAX: 8.114882e-01  
MStencil/s  MAX: 62.422169  
******************************************************
GFlop/s     MIN: 8.080814e-01  
MStencil/s  MIN: 62.160107  
******************************************************
******************************************************
Verifying results
bagm-mute-7-point 2x3 jam Kernel:
     NORM:                   L1                   L2
2124012304512.134766         5.204268e+18
Reference: 
2124012304512.134766         5.204268e+18
******************************************************
******************************************************
TEST#01 time: 1.866897e-02
TEST#02 time: 1.870889e-02
TEST#03 time: 1.874455e-02
******************************************************Rank 0 of 4 <0,0,0,0>  R00-M1-N10-J23: Participating process 0 of 4
Rank 3 of 4 <0,0,0,3>  R00-M1-N10-J23: Participating process 3 of 4
Rank 1 of 4 <0,0,0,1>  R00-M1-N10-J23: Participating process 1 of 4
Rank 2 of 4 <0,0,0,2>  R00-M1-N10-J23: Participating process 2 of 4
******************************************************
Actions: 
L3 flushed: 0
L1 flushed: 0
L1 touched: 0

******************************************************
[bagm-mute-7-point 2x3 jam Kernel]
Jams in i: 2
Jams in j: 3
Number of tests    3
Number of stencils 1128960
Ni: 42 Nj: 170 Nk: 170 
Total memory allocation ~ 19420800 B
total flops:       1.467648e-02 G 
total time(s)    : 5.612241e-02
time/test(s)     : 1.870747e-02
******************************************************
******************************************************
******************************************************
GFlop/s     AVG: 7.845250e-01  
MStencil/s  AVG: 60.348081  
******************************************************
GFlop/s     MAX: 7.861430e-01  
MStencil/s  MAX: 60.472536  
******************************************************
GFlop/s     MIN: 7.829730e-01  
MStencil/s  MIN: 60.228691  
******************************************************
******************************************************
Verifying results
bagm-mute-7-point 2x3 jam Kernel:
     NORM:                   L1                   L2
3366896045040.000000         1.037681e+19
Reference: 
3366896045040.000000         1.037681e+19
******************************************************
******************************************************
TEST#01 time: 2.215157e-02
TEST#02 time: 2.218753e-02
TEST#03 time: 2.218760e-02
******************************************************Rank 0 of 4 <0,0,0,0>  R00-M1-N10-J23: Participating process 0 of 4
Rank 3 of 4 <0,0,0,3>  R00-M1-N10-J23: Participating process 3 of 4
Rank 2 of 4 <0,0,0,2>  R00-M1-N10-J23: Participating process 2 of 4
Rank 1 of 4 <0,0,0,1>  R00-M1-N10-J23: Participating process 1 of 4
******************************************************
Actions: 
L3 flushed: 0
L1 flushed: 0
L1 touched: 0

******************************************************
[bagm-mute-7-point 2x3 jam Kernel]
Jams in i: 2
Jams in j: 3
Number of tests    3
Number of stencils 1425600
Ni: 46 Nj: 182 Nk: 182 
Total memory allocation ~ 24379264 B
total flops:       1.853280e-02 G 
total time(s)    : 6.652670e-02
time/test(s)     : 2.217557e-02
******************************************************
******************************************************
******************************************************
GFlop/s     AVG: 8.357306e-01  
MStencil/s  AVG: 64.286968  
******************************************************
GFlop/s     MAX: 8.366359e-01  
MStencil/s  MAX: 64.356609  
******************************************************
GFlop/s     MIN: 8.352775e-01  
MStencil/s  MIN: 64.252116  
******************************************************
******************************************************
Verifying results
bagm-mute-7-point 2x3 jam Kernel:
     NORM:                   L1                   L2
4748281347686.398438         1.736599e+19
Reference: 
4748281347686.398438         1.736599e+19
******************************************************
******************************************************
TEST#01 time: 2.791659e-02
TEST#02 time: 2.802679e-02
TEST#03 time: 2.795147e-02
******************************************************Rank 0 of 4 <0,0,0,0>  R00-M1-N10-J23: Participating process 0 of 4
Rank 2 of 4 <0,0,0,2>  R00-M1-N10-J23: Participating process 2 of 4
Rank 1 of 4 <0,0,0,1>  R00-M1-N10-J23: Participating process 1 of 4
Rank 3 of 4 <0,0,0,3>  R00-M1-N10-J23: Participating process 3 of 4
******************************************************
Actions: 
L3 flushed: 0
L1 flushed: 0
L1 touched: 0

******************************************************
[bagm-mute-7-point 2x3 jam Kernel]
Jams in i: 2
Jams in j: 3
Number of tests    3
Number of stencils 1695744
Ni: 48 Nj: 194 Nk: 194 
Total memory allocation ~ 28904448 B
total flops:       2.204467e-02 G 
total time(s)    : 8.389486e-02
time/test(s)     : 2.796495e-02
******************************************************
******************************************************
******************************************************
GFlop/s     AVG: 7.882964e-01  
MStencil/s  AVG: 60.638188  
******************************************************
GFlop/s     MAX: 7.896621e-01  
MStencil/s  MAX: 60.743239  
******************************************************
GFlop/s     MIN: 7.865571e-01  
MStencil/s  MIN: 60.504389  
******************************************************
******************************************************
Verifying results
bagm-mute-7-point 2x3 jam Kernel:
     NORM:                   L1                   L2
7117043576040.000000         3.184473e+19
Reference: 
7117043576040.000000         3.184473e+19
******************************************************
******************************************************
TEST#01 time: 3.238432e-02
TEST#02 time: 3.242178e-02
TEST#03 time: 3.252750e-02
******************************************************Rank 0 of 4 <0,0,0,0>  R00-M1-N10-J23: Participating process 0 of 4
Rank 1 of 4 <0,0,0,1>  R00-M1-N10-J23: Participating process 1 of 4
Rank 2 of 4 <0,0,0,2>  R00-M1-N10-J23: Participating process 2 of 4
Rank 3 of 4 <0,0,0,3>  R00-M1-N10-J23: Participating process 3 of 4
******************************************************
Actions: 
L3 flushed: 0
L1 flushed: 0
L1 touched: 0

******************************************************
[bagm-mute-7-point 2x3 jam Kernel]
Jams in i: 2
Jams in j: 3
Number of tests    3
Number of stencils 2080800
Ni: 52 Nj: 206 Nk: 206 
Total memory allocation ~ 35306752 B
total flops:       2.705040e-02 G 
total time(s)    : 9.733359e-02
time/test(s)     : 3.244453e-02
******************************************************
******************************************************
******************************************************
GFlop/s     AVG: 8.337430e-01  
MStencil/s  AVG: 64.134076  
******************************************************
GFlop/s     MAX: 8.352932e-01  
MStencil/s  MAX: 64.253321  
******************************************************
GFlop/s     MIN: 8.316164e-01  
MStencil/s  MIN: 63.970492  
******************************************************
******************************************************
Verifying results
bagm-mute-7-point 2x3 jam Kernel:
     NORM:                   L1                   L2
9650484597312.000000         5.025269e+19
Reference: 
9650484597312.000000         5.025269e+19
******************************************************
******************************************************
TEST#01 time: 3.842608e-02
TEST#02 time: 3.823459e-02
TEST#03 time: 3.823136e-02
******************************************************Rank 0 of 4 <0,0,0,0>  R00-M1-N10-J23: Participating process 0 of 4
Rank 3 of 4 <0,0,0,3>  R00-M1-N10-J23: Participating process 3 of 4
Rank 1 of 4 <0,0,0,1>  R00-M1-N10-J23: Participating process 1 of 4
Rank 2 of 4 <0,0,0,2>  R00-M1-N10-J23: Participating process 2 of 4
******************************************************
Actions: 
L3 flushed: 0
L1 flushed: 0
L1 touched: 0

******************************************************
[bagm-mute-7-point 2x3 jam Kernel]
Jams in i: 2
Jams in j: 3
Number of tests    3
Number of stencils 2426112
Ni: 54 Nj: 218 Nk: 218 
Total memory allocation ~ 41060736 B
total flops:       3.153946e-02 G 
total time(s)    : 1.148920e-01
time/test(s)     : 3.829734e-02
******************************************************
******************************************************
******************************************************
GFlop/s     AVG: 8.235417e-01  
MStencil/s  AVG: 63.349358  
******************************************************
GFlop/s     MAX: 8.249630e-01  
MStencil/s  MAX: 63.458696  
******************************************************
GFlop/s     MIN: 8.207826e-01  
MStencil/s  MIN: 63.137121  
******************************************************
******************************************************
Verifying results
bagm-mute-7-point 2x3 jam Kernel:
     NORM:                   L1                   L2
13844361891626.904297         8.629877e+19
Reference: 
13844361891626.904297         8.629877e+19
******************************************************
******************************************************
TEST#01 time: 4.576901e-02
TEST#02 time: 4.582251e-02
TEST#03 time: 4.581717e-02
******************************************************Rank 0 of 4 <0,0,0,0>  R00-M1-N10-J23: Participating process 0 of 4
Rank 3 of 4 <0,0,0,3>  R00-M1-N10-J23: Participating process 3 of 4
Rank 1 of 4 <0,0,0,1>  R00-M1-N10-J23: Participating process 1 of 4
Rank 2 of 4 <0,0,0,2>  R00-M1-N10-J23: Participating process 2 of 4
******************************************************
Actions: 
L3 flushed: 0
L1 flushed: 0
L1 touched: 0

******************************************************
[bagm-mute-7-point 2x3 jam Kernel]
Jams in i: 2
Jams in j: 3
Number of tests    3
Number of stencils 2911104
Ni: 58 Nj: 230 Nk: 230 
Total memory allocation ~ 49091200 B
total flops:       3.784435e-02 G 
total time(s)    : 1.374087e-01
time/test(s)     : 4.580290e-02
******************************************************
******************************************************
******************************************************
GFlop/s     AVG: 8.262436e-01  
MStencil/s  AVG: 63.557201  
******************************************************
GFlop/s     MAX: 8.268553e-01  
MStencil/s  MAX: 63.604256  
******************************************************
GFlop/s     MIN: 8.258900e-01  
MStencil/s  MIN: 63.530000  
******************************************************
******************************************************
Verifying results
bagm-mute-7-point 2x3 jam Kernel:
     NORM:                   L1                   L2
18195501663360.000000         1.299689e+20
Reference: 
18195501663360.000000         1.299689e+20
******************************************************
******************************************************
TEST#01 time: 5.308632e-02
TEST#02 time: 5.314461e-02
TEST#03 time: 5.315597e-02
******************************************************Rank 0 of 4 <0,0,0,0>  R00-M1-N10-J23: Participating process 0 of 4
Rank 3 of 4 <0,0,0,3>  R00-M1-N10-J23: Participating process 3 of 4
Rank 1 of 4 <0,0,0,1>  R00-M1-N10-J23: Participating process 1 of 4
Rank 2 of 4 <0,0,0,2>  R00-M1-N10-J23: Participating process 2 of 4
******************************************************
Actions: 
L3 flushed: 0
L1 flushed: 0
L1 touched: 0

******************************************************
[bagm-mute-7-point 2x3 jam Kernel]
Jams in i: 2
Jams in j: 3
Number of tests    3
Number of stencils 3340800
Ni: 60 Nj: 242 Nk: 242 
Total memory allocation ~ 56221440 B
total flops:       4.343040e-02 G 
total time(s)    : 1.593869e-01
time/test(s)     : 5.312897e-02
******************************************************
******************************************************
******************************************************
GFlop/s     AVG: 8.174524e-01  
MStencil/s  AVG: 62.880951  
******************************************************
GFlop/s     MAX: 8.181091e-01  
MStencil/s  MAX: 62.931469  
******************************************************
GFlop/s     MIN: 8.170371e-01  
MStencil/s  MIN: 62.849005  
******************************************************
******************************************************
Verifying results
bagm-mute-7-point 2x3 jam Kernel:
     NORM:                   L1                   L2
25198330700491.199219         2.117178e+20
Reference: 
25198330700491.199219         2.117178e+20
******************************************************
******************************************************
TEST#01 time: 6.374238e-02
TEST#02 time: 6.405914e-02
TEST#03 time: 6.412791e-02
******************************************************Rank 0 of 4 <0,0,0,0>  R00-M1-N10-J23: Participating process 0 of 4
Rank 3 of 4 <0,0,0,3>  R00-M1-N10-J23: Participating process 3 of 4
Rank 2 of 4 <0,0,0,2>  R00-M1-N10-J23: Participating process 2 of 4
Rank 1 of 4 <0,0,0,1>  R00-M1-N10-J23: Participating process 1 of 4
******************************************************
Actions: 
L3 flushed: 0
L1 flushed: 0
L1 touched: 0

******************************************************
[bagm-mute-7-point 2x3 jam Kernel]
Jams in i: 2
Jams in j: 3
Number of tests    3
Number of stencils 3937248
Ni: 64 Nj: 254 Nk: 254 
Total memory allocation ~ 66064384 B
total flops:       5.118422e-02 G 
total time(s)    : 1.919294e-01
time/test(s)     : 6.397648e-02
******************************************************
******************************************************
******************************************************
GFlop/s     AVG: 8.000475e-01  
MStencil/s  AVG: 61.542118  
******************************************************
GFlop/s     MAX: 8.029857e-01  
MStencil/s  MAX: 61.768132  
******************************************************
GFlop/s     MIN: 7.981583e-01  
MStencil/s  MIN: 61.396794  
******************************************************
******************************************************
Verifying results
bagm-mute-7-point 2x3 jam Kernel:
     NORM:                   L1                   L2
32286921790464.000000         3.069549e+20
Reference: 
32286921790464.000000         3.069549e+20
******************************************************
******************************************************
TEST#01 time: 9.318386e-02
TEST#02 time: 9.323761e-02
TEST#03 time: 9.313797e-02
******************************************************Rank 0 of 4 <0,0,0,0>  R00-M1-N10-J23: Participating process 0 of 4
Rank 3 of 4 <0,0,0,3>  R00-M1-N10-J23: Participating process 3 of 4
Rank 1 of 4 <0,0,0,1>  R00-M1-N10-J23: Participating process 1 of 4
Rank 2 of 4 <0,0,0,2>  R00-M1-N10-J23: Participating process 2 of 4
******************************************************
Actions: 
L3 flushed: 0
L1 flushed: 0
L1 touched: 0

******************************************************
[bagm-mute-7-point 2x3 jam Kernel]
Jams in i: 2
Jams in j: 3
Number of tests    3
Number of stencils 4460544
Ni: 66 Nj: 266 Nk: 266 
Total memory allocation ~ 74718336 B
total flops:       5.798707e-02 G 
total time(s)    : 2.795594e-01
time/test(s)     : 9.318648e-02
******************************************************
******************************************************
******************************************************
GFlop/s     AVG: 6.222692e-01  
MStencil/s  AVG: 47.866858  
******************************************************
GFlop/s     MAX: 6.225932e-01  
MStencil/s  MAX: 47.891788  
******************************************************
GFlop/s     MIN: 6.219279e-01  
MStencil/s  MIN: 47.840610  
******************************************************
******************************************************
Verifying results
bagm-mute-7-point 2x3 jam Kernel:
     NORM:                   L1                   L2
43435650161001.601562         4.787899e+20
Reference: 
43435650161001.601562         4.787899e+20
******************************************************
******************************************************
TEST#01 time: 1.081184e-01
TEST#02 time: 1.079622e-01
TEST#03 time: 1.080983e-01
******************************************************Rank 0 of 4 <0,0,0,0>  R00-M1-N10-J23: Participating process 0 of 4
Rank 1 of 4 <0,0,0,1>  R00-M1-N10-J23: Participating process 1 of 4
Rank 2 of 4 <0,0,0,2>  R00-M1-N10-J23: Participating process 2 of 4
Rank 3 of 4 <0,0,0,3>  R00-M1-N10-J23: Participating process 3 of 4
******************************************************
Actions: 
L3 flushed: 0
L1 flushed: 0
L1 touched: 0

******************************************************
[bagm-mute-7-point 2x3 jam Kernel]
Jams in i: 2
Jams in j: 3
Number of tests    3
Number of stencils 5179968
Ni: 70 Nj: 278 Nk: 278 
Total memory allocation ~ 86558080 B
total flops:       6.733958e-02 G 
total time(s)    : 3.241788e-01
time/test(s)     : 1.080596e-01
******************************************************
******************************************************
******************************************************
GFlop/s     AVG: 6.231707e-01  
MStencil/s  AVG: 47.936210  
******************************************************
GFlop/s     MAX: 6.237331e-01  
MStencil/s  MAX: 47.979470  
******************************************************
GFlop/s     MIN: 6.228319e-01  
MStencil/s  MIN: 47.910150  
******************************************************
******************************************************
Verifying results
bagm-mute-7-point 2x3 jam Kernel:
     NORM:                   L1                   L2
54493303205387.773438         6.725933e+20
Reference: 
54493303205387.773438         6.725933e+20
******************************************************
******************************************************
TEST#01 time: 1.275168e-01
TEST#02 time: 1.274001e-01
TEST#03 time: 1.275879e-01
******************************************************Rank 0 of 4 <0,0,0,0>  R00-M1-N10-J23: Participating process 0 of 4
Rank 3 of 4 <0,0,0,3>  R00-M1-N10-J23: Participating process 3 of 4
Rank 2 of 4 <0,0,0,2>  R00-M1-N10-J23: Participating process 2 of 4
Rank 1 of 4 <0,0,0,1>  R00-M1-N10-J23: Participating process 1 of 4
******************************************************
Actions: 
L3 flushed: 0
L1 flushed: 0
L1 touched: 0

******************************************************
[bagm-mute-7-point 2x3 jam Kernel]
Jams in i: 2
Jams in j: 3
Number of tests    3
Number of stencils 5806080
Ni: 72 Nj: 290 Nk: 290 
Total memory allocation ~ 96883200 B
total flops:       7.547904e-02 G 
total time(s)    : 3.825047e-01
time/test(s)     : 1.275016e-01
******************************************************
******************************************************
******************************************************
GFlop/s     AVG: 5.919852e-01  
MStencil/s  AVG: 45.537320  
******************************************************
GFlop/s     MAX: 5.924569e-01  
MStencil/s  MAX: 45.573605  
******************************************************
GFlop/s     MIN: 5.915846e-01  
MStencil/s  MIN: 45.506511  
******************************************************
******************************************************
Verifying results
bagm-mute-7-point 2x3 jam Kernel:
     NORM:                   L1                   L2
71553905469000.000000         1.011707e+21
Reference: 
71553905468999.984375         1.011707e+21
******************************************************
******************************************************
TEST#01 time: 1.390263e-01
TEST#02 time: 1.389868e-01
TEST#03 time: 1.389796e-01
******************************************************Rank 0 of 4 <0,0,0,0>  R00-M1-N10-J23: Participating process 0 of 4
Rank 2 of 4 <0,0,0,2>  R00-M1-N10-J23: Participating process 2 of 4
Rank 1 of 4 <0,0,0,1>  R00-M1-N10-J23: Participating process 1 of 4
Rank 3 of 4 <0,0,0,3>  R00-M1-N10-J23: Participating process 3 of 4
******************************************************
Actions: 
L3 flushed: 0
L1 flushed: 0
L1 touched: 0

******************************************************
[bagm-mute-7-point 2x3 jam Kernel]
Jams in i: 2
Jams in j: 3
Number of tests    3
Number of stencils 6660000
Ni: 76 Nj: 302 Nk: 302 
Total memory allocation ~ 110904064 B
total flops:       8.658000e-02 G 
total time(s)    : 4.169928e-01
time/test(s)     : 1.389976e-01
******************************************************
******************************************************
******************************************************
GFlop/s     AVG: 6.228885e-01  
MStencil/s  AVG: 47.914500  
******************************************************
GFlop/s     MAX: 6.229689e-01  
MStencil/s  MAX: 47.920686  
******************************************************
GFlop/s     MIN: 6.227598e-01  
MStencil/s  MIN: 47.904603  
******************************************************
******************************************************
Verifying results
bagm-mute-7-point 2x3 jam Kernel:
     NORM:                   L1                   L2
88187761896998.406250         1.383888e+21
Reference: 
88187761896998.406250         1.383888e+21
******************************************************
******************************************************
TEST#01 time: 1.560662e-01
TEST#02 time: 1.557787e-01
TEST#03 time: 1.557508e-01
******************************************************Rank 0 of 4 <0,0,0,0>  R00-M1-N10-J23: Participating process 0 of 4
Rank 3 of 4 <0,0,0,3>  R00-M1-N10-J23: Participating process 3 of 4
Rank 1 of 4 <0,0,0,1>  R00-M1-N10-J23: Participating process 1 of 4
Rank 2 of 4 <0,0,0,2>  R00-M1-N10-J23: Participating process 2 of 4
******************************************************
Actions: 
L3 flushed: 0
L1 flushed: 0
L1 touched: 0

******************************************************
[bagm-mute-7-point 2x3 jam Kernel]
Jams in i: 2
Jams in j: 3
Number of tests    3
Number of stencils 7398144
Ni: 78 Nj: 314 Nk: 314 
Total memory allocation ~ 123047808 B
total flops:       9.617587e-02 G 
total time(s)    : 4.675957e-01
time/test(s)     : 1.558652e-01
******************************************************
******************************************************
******************************************************
GFlop/s     AVG: 6.170451e-01  
MStencil/s  AVG: 47.465008  
******************************************************
GFlop/s     MAX: 6.174986e-01  
MStencil/s  MAX: 47.499890  
******************************************************
GFlop/s     MIN: 6.162504e-01  
MStencil/s  MIN: 47.403875  
******************************************************
******************************************************
Verifying results
bagm-mute-7-point 2x3 jam Kernel:
     NORM:                   L1                   L2
113438560878144.000000         2.018443e+21
Reference: 
113438560878144.000000         2.018443e+21
******************************************************
******************************************************
TEST#01 time: 1.762847e-01
TEST#02 time: 1.761874e-01
TEST#03 time: 1.760533e-01
******************************************************Rank 0 of 4 <0,0,0,0>  R00-M1-N10-J23: Participating process 0 of 4
Rank 3 of 4 <0,0,0,3>  R00-M1-N10-J23: Participating process 3 of 4
Rank 1 of 4 <0,0,0,1>  R00-M1-N10-J23: Participating process 1 of 4
Rank 2 of 4 <0,0,0,2>  R00-M1-N10-J23: Participating process 2 of 4
******************************************************
Actions: 
L3 flushed: 0
L1 flushed: 0
L1 touched: 0

******************************************************
[bagm-mute-7-point 2x3 jam Kernel]
Jams in i: 2
Jams in j: 3
Number of tests    3
Number of stencils 8398080
Ni: 82 Nj: 326 Nk: 326 
Total memory allocation ~ 139434112 B
total flops:       1.091750e-01 G 
total time(s)    : 5.285254e-01
time/test(s)     : 1.761751e-01
******************************************************
******************************************************
******************************************************
GFlop/s     AVG: 6.196960e-01  
MStencil/s  AVG: 47.668925  
******************************************************
GFlop/s     MAX: 6.201248e-01  
MStencil/s  MAX: 47.701910  
******************************************************
GFlop/s     MIN: 6.193109e-01  
MStencil/s  MIN: 47.639297  
******************************************************
******************************************************
Verifying results
bagm-mute-7-point 2x3 jam Kernel:
     NORM:                   L1                   L2
137700889828992.015625         2.698862e+21
Reference: 
137700889828992.015625         2.698862e+21
******************************************************
******************************************************
TEST#01 time: 1.937556e-01
TEST#02 time: 1.936599e-01
TEST#03 time: 1.936482e-01
******************************************************Rank 0 of 4 <0,0,0,0>  R00-M1-N10-J23: Participating process 0 of 4
Rank 3 of 4 <0,0,0,3>  R00-M1-N10-J23: Participating process 3 of 4
Rank 1 of 4 <0,0,0,1>  R00-M1-N10-J23: Participating process 1 of 4
Rank 2 of 4 <0,0,0,2>  R00-M1-N10-J23: Participating process 2 of 4
******************************************************
Actions: 
L3 flushed: 0
L1 flushed: 0
L1 touched: 0

******************************************************
[bagm-mute-7-point 2x3 jam Kernel]
Jams in i: 2
Jams in j: 3
Number of tests    3
Number of stencils 9257472
Ni: 84 Nj: 338 Nk: 338 
Total memory allocation ~ 153543936 B
total flops:       1.203471e-01 G 
total time(s)    : 5.810636e-01
time/test(s)     : 1.936879e-01
******************************************************
******************************************************
******************************************************
GFlop/s     AVG: 6.213457e-01  
MStencil/s  AVG: 47.795825  
******************************************************
GFlop/s     MAX: 6.214732e-01  
MStencil/s  MAX: 47.805631  
******************************************************
GFlop/s     MIN: 6.211286e-01  
MStencil/s  MIN: 47.779123  
******************************************************
******************************************************
Verifying results
bagm-mute-7-point 2x3 jam Kernel:
     NORM:                   L1                   L2
174023283152781.281250         3.833449e+21
Reference: 
174023283152781.281250         3.833449e+21
******************************************************
******************************************************
TEST#01 time: 2.210234e-01
TEST#02 time: 2.210618e-01
TEST#03 time: 2.211263e-01
******************************************************Rank 0 of 4 <0,0,0,0>  R00-M1-N10-J23: Participating process 0 of 4
Rank 3 of 4 <0,0,0,3>  R00-M1-N10-J23: Participating process 3 of 4
Rank 2 of 4 <0,0,0,2>  R00-M1-N10-J23: Participating process 2 of 4
Rank 1 of 4 <0,0,0,1>  R00-M1-N10-J23: Participating process 1 of 4
******************************************************
Actions: 
L3 flushed: 0
L1 flushed: 0
L1 touched: 0

******************************************************
[bagm-mute-7-point 2x3 jam Kernel]
Jams in i: 2
Jams in j: 3
Number of tests    3
Number of stencils 10414944
Ni: 88 Nj: 350 Nk: 350 
Total memory allocation ~ 172480000 B
total flops:       1.353943e-01 G 
total time(s)    : 6.632115e-01
time/test(s)     : 2.210705e-01
******************************************************
******************************************************
******************************************************
GFlop/s     AVG: 6.124484e-01  
MStencil/s  AVG: 47.111416  
******************************************************
GFlop/s     MAX: 6.125789e-01  
MStencil/s  MAX: 47.121457  
******************************************************
GFlop/s     MIN: 6.122939e-01  
MStencil/s  MIN: 47.099531  
******************************************************
******************************************************
Verifying results
bagm-mute-7-point 2x3 jam Kernel:
     NORM:                   L1                   L2
208487002584960.000000         5.025863e+21
Reference: 
208487002584960.000000         5.025863e+21
******************************************************
******************************************************
TEST#01 time: 2.402599e-01
TEST#02 time: 2.402256e-01
TEST#03 time: 2.402033e-01
******************************************************Rank 0 of 4 <0,0,0,0>  R00-M1-N10-J23: Participating process 0 of 4
Rank 3 of 4 <0,0,0,3>  R00-M1-N10-J23: Participating process 3 of 4
Rank 2 of 4 <0,0,0,2>  R00-M1-N10-J23: Participating process 2 of 4
Rank 1 of 4 <0,0,0,1>  R00-M1-N10-J23: Participating process 1 of 4
******************************************************
Actions: 
L3 flushed: 0
L1 flushed: 0
L1 touched: 0

******************************************************
[bagm-mute-7-point 2x3 jam Kernel]
Jams in i: 2
Jams in j: 3
Number of tests    3
Number of stencils 11404800
Ni: 90 Nj: 362 Nk: 362 
Total memory allocation ~ 188703360 B
total flops:       1.482624e-01 G 
total time(s)    : 7.206888e-01
time/test(s)     : 2.402296e-01
******************************************************
******************************************************
******************************************************
GFlop/s     AVG: 6.171696e-01  
MStencil/s  AVG: 47.474581  
******************************************************
GFlop/s     MAX: 6.172371e-01  
MStencil/s  MAX: 47.479779  
******************************************************
GFlop/s     MIN: 6.170918e-01  
MStencil/s  MIN: 47.468597  
******************************************************
