mode,kernel,cold_start,jam_i,jam_j,ni,nj,nk,mstencil/s
l2pfo,bagm-mute-7-point,0.0,2.0,3.0,4.0,14.0,14.0,124.289196
l2pfo,bagm-mute-7-point,0.0,2.0,3.0,64.0,254.0,254.0,56.867102
l2pfo,bagm-mute-7-point,1.0,2.0,3.0,4.0,14.0,14.0,48.037677
l2pfo,bagm-mute-7-point,1.0,2.0,3.0,64.0,254.0,254.0,57.298255
