"kernel_name";"I_test";"I_depend";"hazard";"fill_size";"time/cycle";"cycles/iteration";"-noh"
"fxmul_fxmul_raw_0";" fxmul";" fxmul";" raw";0;" 3.535435e-08";30.0512;3.99
"fxmul_fxmul_raw_1";" fxmul";" fxmul";" raw";1;" 3.417800e-08";29.0513;3
"fxmul_fxmul_raw_2";" fxmul";" fxmul";" raw";2;" 3.300365e-08";28.0531;2
"fxmul_fxmul_raw_3";" fxmul";" fxmul";" raw";3;" 3.182812e-08";27.0539;1
"fxmul_lfpdux_waw_0";" fxmul";" lfpdux";" waw";0;" 3.418376e-08";29.0562;1
"fxmul_lfpdux_waw_1";" fxmul";" lfpdux";" waw";1;" 3.301788e-08";28.0652;1.01
"fxmul_lfpdux_waw_2";" fxmul";" lfpdux";" waw";2;" 3.301012e-08";28.0586;1
"lfpdux_fxmul_raw_0";" lfpdux";" fxmul";" raw";0;" 4.125082e-08";35.0632;4
"lfpdux_fxmul_raw_1";" lfpdux";" fxmul";" raw";1;" 4.007259e-08";34.0617;3
"lfpdux_fxmul_raw_2";" lfpdux";" fxmul";" raw";2;" 3.889471e-08";33.0605;2
"lfpdux_fxmul_raw_3";" lfpdux";" fxmul";" raw";3;" 3.772118e-08";32.063;1
"lfpdux_fxmul_raw_4";" lfpdux";" fxmul";" raw";4;" 3.772294e-08";32.0645;1
"lfpdux_fxmul_waw_0";" lfpdux";" fxmul";" waw";0;" 4.124753e-08";35.0604;4
"lfpdux_fxmul_waw_1";" lfpdux";" fxmul";" waw";1;" 4.007047e-08";34.0599;3
"lfpdux_fxmul_waw_2";" lfpdux";" fxmul";" waw";2;" 3.889388e-08";33.0598;2
"lfpdux_fxmul_waw_3";" lfpdux";" fxmul";" waw";3;" 3.772388e-08";32.0653;1.01
"lfpdux_fxmul_waw_4";" lfpdux";" fxmul";" waw";4;" 3.771824e-08";32.0605;1
"lfpdux_lfpdux_waw_0";" lfpdux";" lfpdux";" waw";0;" 4.125059e-08";35.063;1
"lfpdux_lfpdux_waw_1";" lfpdux";" lfpdux";" waw";1;" 4.007235e-08";34.0615;1
"stfpdux_fxmul_war_0";" stfpdux";" fxmul";" war";0;" 3.772282e-08";32.0644;1
"stfpdux_fxmul_war_1";" stfpdux";" fxmul";" war";1;" 3.771812e-08";32.0604;0.99
