mode,kernel,cold_start,jam_i,jam_j,ni,nj,nk,mstencil/s
l2pfo_nofma,bagm-mute-27-point,0.0,1.0,1.0,4.0,14.0,14.0,38.609917
l2pfo_nofma,bagm-mute-27-point,0.0,1.0,2.0,4.0,14.0,14.0,57.147659
l2pfo_nofma,bagm-mute-27-point,0.0,1.0,3.0,4.0,14.0,14.0,67.230214
l2pfo_nofma,bagm-mute-27-point,0.0,2.0,2.0,4.0,14.0,14.0,81.861958
l2pfo_nofma,bagm-mute-27-point,0.0,2.0,3.0,4.0,14.0,14.0,95.977793
l2pfo_nofma,bagm-mute-27-point,0.0,1.0,1.0,254.0,254.0,64.0,38.108556
l2pfo_nofma,bagm-mute-27-point,0.0,1.0,2.0,254.0,254.0,64.0,41.185987
l2pfo_nofma,bagm-mute-27-point,0.0,1.0,3.0,254.0,254.0,64.0,40.081395
l2pfo_nofma,bagm-mute-27-point,0.0,2.0,2.0,254.0,254.0,64.0,56.273928
l2pfo_nofma,bagm-mute-27-point,0.0,2.0,3.0,254.0,254.0,64.0,54.96683
l2pfo_nofma,bagm-mute-27-point,1.0,1.0,1.0,4.0,14.0,14.0,30.177515
l2pfo_nofma,bagm-mute-27-point,1.0,1.0,2.0,4.0,14.0,14.0,38.448249
l2pfo_nofma,bagm-mute-27-point,1.0,1.0,3.0,4.0,14.0,14.0,42.536924
l2pfo_nofma,bagm-mute-27-point,1.0,2.0,2.0,4.0,14.0,14.0,46.319773
l2pfo_nofma,bagm-mute-27-point,1.0,2.0,3.0,4.0,14.0,14.0,46.968534
l2pfo_nofma,bagm-mute-27-point,1.0,1.0,1.0,254.0,254.0,64.0,38.06295
l2pfo_nofma,bagm-mute-27-point,1.0,1.0,2.0,254.0,254.0,64.0,41.21643
l2pfo_nofma,bagm-mute-27-point,1.0,1.0,3.0,254.0,254.0,64.0,40.00526
l2pfo_nofma,bagm-mute-27-point,1.0,2.0,2.0,254.0,254.0,64.0,56.061013
l2pfo_nofma,bagm-mute-27-point,1.0,2.0,3.0,254.0,254.0,64.0,55.499588
