==========================================================================
== run date: Wed Sep 7 13:53:08 AST 2011
==========================================================================
==========================================================================
make MUTANT_KERNEL=bagm_mute_27pt DRIVER_OPTS=" -DVERIFY=0 -DN_TESTS=4 -DPRINT_TIME_DETAILS=1 -DN_I=4 -DN_J=14 -DN_K=14 -DFLUSH_ALL_CACHES=0 -DN_CYCLES=100 " BUILDER_OPTS="-v 0 -i 1 --no_fma 1 --unroll_i 1 --unroll_j 1 " -B
--------------------------------------------------------------------------
mkdir -p build
./build.py -k bagm_mute_27pt -v 0 -i 1 --no_fma 1 --unroll_i 1 --unroll_j 1 
gen_header_defines: 0
gen_initialize_registers: 0
gen_inner_iter: 135
gen_prologue: 32
/bgsys/drivers/ppcfloor/comm/bin/mpixlc_r -O3 -qstrict -Ibuild -o build/driver.o -c drivers/driver.c -DVERIFY=0 -DN_TESTS=4 -DPRINT_TIME_DETAILS=1  -DN_I=4 -DN_J=14 -DN_K=14 -DFLUSH_ALL_CACHES=0 -DN_CYCLES=100  -qnosmp
/bgsys/drivers/ppcfloor/comm/bin/mpixlc_r -O3 -qstrict -o build/c_kernel.o -c drivers/c_kernel.c -DVERIFY=0 -DN_TESTS=4 -DPRINT_TIME_DETAILS=1  -DN_I=4 -DN_J=14 -DN_K=14 -DFLUSH_ALL_CACHES=0 -DN_CYCLES=100 
/bgsys/drivers/ppcfloor/comm/bin/mpixlf90_r -O5 -qextname -o build/fortran_kernel.o -c drivers/fortran_kernel.F90
/bgsys/drivers/ppcfloor/comm/bin/mpixlc_r -O3 -qstrict -o build/bagm_mute_27pt build/driver.o build/c_kernel.o build/fortran_kernel.o  
--------------------------------------------------------------------------
/bgsys/drivers/ppcfloor/bin/mpirun -exp_env LD_LIBRARY_PATH -exp_env PYTHONPATH -env BG_MAPPING=TXYZ -np 4 -mode VN ./build/bagm_mute_27pt  
--------------------------------------------------------------------------

******************************************************
TEST#01 time: 7.493506e-06
TEST#02 time: 7.459365e-06
TEST#03 time: 7.476118e-06
TEST#04 time: 7.479035e-06
******************************************************
Rank 0 of 4 <0,0,0,0>  R00-M1-N00-J23: Participating process 0 of 4

Rank 1 of 4 <0,0,0,1>  R00-M1-N00-J23: Participating process 1 of 4


Rank 2 of 4 <0,0,0,2>  R00-M1-N00-J23: Participating process 2 of 4
Rank 3 of 4 <0,0,0,3>  R00-M1-N00-J23: Participating process 3 of 4
******************************************************
Actions: 
L3 flushed: 0
L1 flushed: 0
L1 touched: 0

******************************************************
[bagm-mute-27-point 1x1 jam Kernel - FMA OPS DISABLED]
Jams in i: 1
Jams in j: 1
Number of tests    4
Number of stencils 288
Ni: 4 Nj: 14 Nk: 14 
Total memory allocation ~ 12544 B
total flops:       1.526400e-05 G 
total time(s)    : 2.990802e-05
time/test(s)     : 7.477006e-06
******************************************************
******************************************************
******************************************************
GFlop/s     AVG: 2.041459e+00  
MStencil/s  AVG: 38.518092  
******************************************************
GFlop/s     MAX: 2.046287e+00  
MStencil/s  MAX: 38.609186  
******************************************************
GFlop/s     MIN: 2.036964e+00  
MStencil/s  MIN: 38.433279  
******************************************************
==========================================================================
make MUTANT_KERNEL=bagm_mute_27pt DRIVER_OPTS=" -DVERIFY=0 -DN_TESTS=4 -DPRINT_TIME_DETAILS=1 -DN_I=4 -DN_J=14 -DN_K=14 -DFLUSH_ALL_CACHES=0 -DN_CYCLES=100 " BUILDER_OPTS="-v 0 -i 1 --no_fma 1 --unroll_i 1 --unroll_j 2 " -B
--------------------------------------------------------------------------
mkdir -p build
./build.py -k bagm_mute_27pt -v 0 -i 1 --no_fma 1 --unroll_i 1 --unroll_j 2 
gen_header_defines: 0
gen_initialize_registers: 0
gen_inner_iter: 139
gen_prologue: 38
/bgsys/drivers/ppcfloor/comm/bin/mpixlc_r -O3 -qstrict -Ibuild -o build/driver.o -c drivers/driver.c -DVERIFY=0 -DN_TESTS=4 -DPRINT_TIME_DETAILS=1  -DN_I=4 -DN_J=14 -DN_K=14 -DFLUSH_ALL_CACHES=0 -DN_CYCLES=100  -qnosmp
/bgsys/drivers/ppcfloor/comm/bin/mpixlc_r -O3 -qstrict -o build/c_kernel.o -c drivers/c_kernel.c -DVERIFY=0 -DN_TESTS=4 -DPRINT_TIME_DETAILS=1  -DN_I=4 -DN_J=14 -DN_K=14 -DFLUSH_ALL_CACHES=0 -DN_CYCLES=100 
/bgsys/drivers/ppcfloor/comm/bin/mpixlf90_r -O5 -qextname -o build/fortran_kernel.o -c drivers/fortran_kernel.F90
/bgsys/drivers/ppcfloor/comm/bin/mpixlc_r -O3 -qstrict -o build/bagm_mute_27pt build/driver.o build/c_kernel.o build/fortran_kernel.o  
--------------------------------------------------------------------------
/bgsys/drivers/ppcfloor/bin/mpirun -exp_env LD_LIBRARY_PATH -exp_env PYTHONPATH -env BG_MAPPING=TXYZ -np 4 -mode VN ./build/bagm_mute_27pt  
--------------------------------------------------------------------------

******************************************************
TEST#01 time: 5.077012e-06
TEST#02 time: 5.039294e-06
TEST#03 time: 5.042776e-06
TEST#04 time: 5.041235e-06
******************************************************
Rank 0 of 4 <0,0,0,0>  R00-M1-N00-J23: Participating process 0 of 4

Rank 1 of 4 <0,0,0,1>  R00-M1-N00-J23: Participating process 1 of 4


Rank 2 of 4 <0,0,0,2>  R00-M1-N00-J23: Participating process 2 of 4
Rank 3 of 4 <0,0,0,3>  R00-M1-N00-J23: Participating process 3 of 4
******************************************************
Actions: 
L3 flushed: 0
L1 flushed: 0
L1 touched: 0

******************************************************
[bagm-mute-27-point 1x2 jam Kernel - FMA OPS DISABLED]
Jams in i: 1
Jams in j: 2
Number of tests    4
Number of stencils 288
Ni: 4 Nj: 14 Nk: 14 
Total memory allocation ~ 12544 B
total flops:       1.526400e-05 G 
total time(s)    : 2.020032e-05
time/test(s)     : 5.050079e-06
******************************************************
******************************************************
******************************************************
GFlop/s     AVG: 3.022527e+00  
MStencil/s  AVG: 57.028806  
******************************************************
GFlop/s     MAX: 3.028996e+00  
MStencil/s  MAX: 57.150861  
******************************************************
GFlop/s     MIN: 3.006493e+00  
MStencil/s  MIN: 56.726282  
******************************************************
==========================================================================
make MUTANT_KERNEL=bagm_mute_27pt DRIVER_OPTS=" -DVERIFY=0 -DN_TESTS=4 -DPRINT_TIME_DETAILS=1 -DN_I=4 -DN_J=14 -DN_K=14 -DFLUSH_ALL_CACHES=0 -DN_CYCLES=100 " BUILDER_OPTS="-v 0 -i 1 --no_fma 1 --unroll_i 1 --unroll_j 3 " -B
--------------------------------------------------------------------------
mkdir -p build
./build.py -k bagm_mute_27pt -v 0 -i 1 --no_fma 1 --unroll_i 1 --unroll_j 3 
gen_header_defines: 0
gen_initialize_registers: 0
gen_inner_iter: 143
gen_prologue: 44
/bgsys/drivers/ppcfloor/comm/bin/mpixlc_r -O3 -qstrict -Ibuild -o build/driver.o -c drivers/driver.c -DVERIFY=0 -DN_TESTS=4 -DPRINT_TIME_DETAILS=1  -DN_I=4 -DN_J=14 -DN_K=14 -DFLUSH_ALL_CACHES=0 -DN_CYCLES=100  -qnosmp
/bgsys/drivers/ppcfloor/comm/bin/mpixlc_r -O3 -qstrict -o build/c_kernel.o -c drivers/c_kernel.c -DVERIFY=0 -DN_TESTS=4 -DPRINT_TIME_DETAILS=1  -DN_I=4 -DN_J=14 -DN_K=14 -DFLUSH_ALL_CACHES=0 -DN_CYCLES=100 
/bgsys/drivers/ppcfloor/comm/bin/mpixlf90_r -O5 -qextname -o build/fortran_kernel.o -c drivers/fortran_kernel.F90
/bgsys/drivers/ppcfloor/comm/bin/mpixlc_r -O3 -qstrict -o build/bagm_mute_27pt build/driver.o build/c_kernel.o build/fortran_kernel.o  
--------------------------------------------------------------------------
/bgsys/drivers/ppcfloor/bin/mpirun -exp_env LD_LIBRARY_PATH -exp_env PYTHONPATH -env BG_MAPPING=TXYZ -np 4 -mode VN ./build/bagm_mute_27pt  
--------------------------------------------------------------------------

******************************************************
TEST#01 time: 4.315788e-06
TEST#02 time: 4.283906e-06
TEST#03 time: 4.287224e-06
TEST#04 time: 4.287165e-06
******************************************************
Rank 0 of 4 <0,0,0,0>  R00-M1-N00-J23: Participating process 0 of 4

Rank 1 of 4 <0,0,0,1>  R00-M1-N00-J23: Participating process 1 of 4


Rank 2 of 4 <0,0,0,2>  R00-M1-N00-J23: Participating process 2 of 4
Rank 3 of 4 <0,0,0,3>  R00-M1-N00-J23: Participating process 3 of 4
******************************************************
Actions: 
L3 flushed: 0
L1 flushed: 0
L1 touched: 0

******************************************************
[bagm-mute-27-point 1x3 jam Kernel - FMA OPS DISABLED]
Jams in i: 1
Jams in j: 3
Number of tests    4
Number of stencils 288
Ni: 4 Nj: 14 Nk: 14 
Total memory allocation ~ 12544 B
total flops:       1.526400e-05 G 
total time(s)    : 1.717408e-05
time/test(s)     : 4.293521e-06
******************************************************
******************************************************
******************************************************
GFlop/s     AVG: 3.555124e+00  
MStencil/s  AVG: 67.077820  
******************************************************
GFlop/s     MAX: 3.563103e+00  
MStencil/s  MAX: 67.228368  
******************************************************
GFlop/s     MIN: 3.536782e+00  
MStencil/s  MIN: 66.731726  
******************************************************
==========================================================================
make MUTANT_KERNEL=bagm_mute_27pt DRIVER_OPTS=" -DVERIFY=0 -DN_TESTS=4 -DPRINT_TIME_DETAILS=1 -DN_I=4 -DN_J=14 -DN_K=14 -DFLUSH_ALL_CACHES=0 -DN_CYCLES=100 " BUILDER_OPTS="-v 0 -i 1 --no_fma 1 --unroll_i 2 --unroll_j 2 " -B
--------------------------------------------------------------------------
mkdir -p build
./build.py -k bagm_mute_27pt -v 0 -i 1 --no_fma 1 --unroll_i 2 --unroll_j 2 
gen_header_defines: 0
gen_initialize_registers: 0
gen_inner_iter: 147
gen_prologue: 46
/bgsys/drivers/ppcfloor/comm/bin/mpixlc_r -O3 -qstrict -Ibuild -o build/driver.o -c drivers/driver.c -DVERIFY=0 -DN_TESTS=4 -DPRINT_TIME_DETAILS=1  -DN_I=4 -DN_J=14 -DN_K=14 -DFLUSH_ALL_CACHES=0 -DN_CYCLES=100  -qnosmp
/bgsys/drivers/ppcfloor/comm/bin/mpixlc_r -O3 -qstrict -o build/c_kernel.o -c drivers/c_kernel.c -DVERIFY=0 -DN_TESTS=4 -DPRINT_TIME_DETAILS=1  -DN_I=4 -DN_J=14 -DN_K=14 -DFLUSH_ALL_CACHES=0 -DN_CYCLES=100 
/bgsys/drivers/ppcfloor/comm/bin/mpixlf90_r -O5 -qextname -o build/fortran_kernel.o -c drivers/fortran_kernel.F90
/bgsys/drivers/ppcfloor/comm/bin/mpixlc_r -O3 -qstrict -o build/bagm_mute_27pt build/driver.o build/c_kernel.o build/fortran_kernel.o  
--------------------------------------------------------------------------
/bgsys/drivers/ppcfloor/bin/mpirun -exp_env LD_LIBRARY_PATH -exp_env PYTHONPATH -env BG_MAPPING=TXYZ -np 4 -mode VN ./build/bagm_mute_27pt  
--------------------------------------------------------------------------

******************************************************
TEST#01 time: 3.563929e-06
TEST#02 time: 3.520729e-06
TEST#03 time: 3.520400e-06
TEST#04 time: 3.518729e-06
******************************************************
Rank 0 of 4 <0,0,0,0>  R00-M1-N00-J23: Participating process 0 of 4

Rank 1 of 4 <0,0,0,1>  R00-M1-N00-J23: Participating process 1 of 4


Rank 2 of 4 <0,0,0,2>  R00-M1-N00-J23: Participating process 2 of 4
Rank 3 of 4 <0,0,0,3>  R00-M1-N00-J23: Participating process 3 of 4
******************************************************
Actions: 
L3 flushed: 0
L1 flushed: 0
L1 touched: 0

******************************************************
[bagm-mute-27-point 2x2 jam Kernel - FMA OPS DISABLED]
Jams in i: 2
Jams in j: 2
Number of tests    4
Number of stencils 288
Ni: 4 Nj: 14 Nk: 14 
Total memory allocation ~ 12544 B
total flops:       1.526400e-05 G 
total time(s)    : 1.412379e-05
time/test(s)     : 3.530947e-06
******************************************************
******************************************************
******************************************************
GFlop/s     AVG: 4.322920e+00  
MStencil/s  AVG: 81.564519  
******************************************************
GFlop/s     MAX: 4.337929e+00  
MStencil/s  MAX: 81.847726  
******************************************************
GFlop/s     MIN: 4.282913e+00  
MStencil/s  MIN: 80.809681  
******************************************************
==========================================================================
make MUTANT_KERNEL=bagm_mute_27pt DRIVER_OPTS=" -DVERIFY=0 -DN_TESTS=4 -DPRINT_TIME_DETAILS=1 -DN_I=4 -DN_J=14 -DN_K=14 -DFLUSH_ALL_CACHES=0 -DN_CYCLES=100 " BUILDER_OPTS="-v 0 -i 1 --no_fma 1 --unroll_i 2 --unroll_j 3 " -B
--------------------------------------------------------------------------
mkdir -p build
./build.py -k bagm_mute_27pt -v 0 -i 1 --no_fma 1 --unroll_i 2 --unroll_j 3 
gen_header_defines: 0
gen_initialize_registers: 0
gen_inner_iter: 181
gen_prologue: 54
/bgsys/drivers/ppcfloor/comm/bin/mpixlc_r -O3 -qstrict -Ibuild -o build/driver.o -c drivers/driver.c -DVERIFY=0 -DN_TESTS=4 -DPRINT_TIME_DETAILS=1  -DN_I=4 -DN_J=14 -DN_K=14 -DFLUSH_ALL_CACHES=0 -DN_CYCLES=100  -qnosmp
/bgsys/drivers/ppcfloor/comm/bin/mpixlc_r -O3 -qstrict -o build/c_kernel.o -c drivers/c_kernel.c -DVERIFY=0 -DN_TESTS=4 -DPRINT_TIME_DETAILS=1  -DN_I=4 -DN_J=14 -DN_K=14 -DFLUSH_ALL_CACHES=0 -DN_CYCLES=100 
/bgsys/drivers/ppcfloor/comm/bin/mpixlf90_r -O5 -qextname -o build/fortran_kernel.o -c drivers/fortran_kernel.F90
/bgsys/drivers/ppcfloor/comm/bin/mpixlc_r -O3 -qstrict -o build/bagm_mute_27pt build/driver.o build/c_kernel.o build/fortran_kernel.o  
--------------------------------------------------------------------------
/bgsys/drivers/ppcfloor/bin/mpirun -exp_env LD_LIBRARY_PATH -exp_env PYTHONPATH -env BG_MAPPING=TXYZ -np 4 -mode VN ./build/bagm_mute_27pt  
--------------------------------------------------------------------------

******************************************************
TEST#01 time: 3.046824e-06
TEST#02 time: 3.004094e-06
TEST#03 time: 3.004212e-06
TEST#04 time: 3.000341e-06
******************************************************
Rank 0 of 4 <0,0,0,0>  R00-M1-N00-J23: Participating process 0 of 4


Rank 1 of 4 <0,0,0,1>  R00-M1-N00-J23: Participating process 1 of 4
Rank 2 of 4 <0,0,0,2>  R00-M1-N00-J23: Participating process 2 of 4

Rank 3 of 4 <0,0,0,3>  R00-M1-N00-J23: Participating process 3 of 4
******************************************************
Actions: 
L3 flushed: 0
L1 flushed: 0
L1 touched: 0

******************************************************
[bagm-mute-27-point 2x3 jam Kernel - FMA OPS DISABLED]
Jams in i: 2
Jams in j: 3
Number of tests    4
Number of stencils 288
Ni: 4 Nj: 14 Nk: 14 
Total memory allocation ~ 12544 B
total flops:       1.526400e-05 G 
total time(s)    : 1.205547e-05
time/test(s)     : 3.013868e-06
******************************************************
******************************************************
******************************************************
GFlop/s     AVG: 5.064589e+00  
MStencil/s  AVG: 95.558277  
******************************************************
GFlop/s     MAX: 5.087421e+00  
MStencil/s  MAX: 95.989084  
******************************************************
GFlop/s     MIN: 5.009808e+00  
MStencil/s  MIN: 94.524674  
******************************************************
==========================================================================
make MUTANT_KERNEL=bagm_mute_27pt DRIVER_OPTS=" -DVERIFY=0 -DN_TESTS=4 -DPRINT_TIME_DETAILS=1 -DN_I=254 -DN_J=254 -DN_K=64 -DFLUSH_ALL_CACHES=0 -DN_CYCLES=100 " BUILDER_OPTS="-v 0 -i 1 --no_fma 1 --unroll_i 1 --unroll_j 1 " -B
--------------------------------------------------------------------------
mkdir -p build
./build.py -k bagm_mute_27pt -v 0 -i 1 --no_fma 1 --unroll_i 1 --unroll_j 1 
gen_header_defines: 0
gen_initialize_registers: 0
gen_inner_iter: 135
gen_prologue: 32
/bgsys/drivers/ppcfloor/comm/bin/mpixlc_r -O3 -qstrict -Ibuild -o build/driver.o -c drivers/driver.c -DVERIFY=0 -DN_TESTS=4 -DPRINT_TIME_DETAILS=1  -DN_I=254 -DN_J=254 -DN_K=64 -DFLUSH_ALL_CACHES=0 -DN_CYCLES=100  -qnosmp
/bgsys/drivers/ppcfloor/comm/bin/mpixlc_r -O3 -qstrict -o build/c_kernel.o -c drivers/c_kernel.c -DVERIFY=0 -DN_TESTS=4 -DPRINT_TIME_DETAILS=1  -DN_I=254 -DN_J=254 -DN_K=64 -DFLUSH_ALL_CACHES=0 -DN_CYCLES=100 
/bgsys/drivers/ppcfloor/comm/bin/mpixlf90_r -O5 -qextname -o build/fortran_kernel.o -c drivers/fortran_kernel.F90
/bgsys/drivers/ppcfloor/comm/bin/mpixlc_r -O3 -qstrict -o build/bagm_mute_27pt build/driver.o build/c_kernel.o build/fortran_kernel.o  
--------------------------------------------------------------------------
/bgsys/drivers/ppcfloor/bin/mpirun -exp_env LD_LIBRARY_PATH -exp_env PYTHONPATH -env BG_MAPPING=TXYZ -np 4 -mode VN ./build/bagm_mute_27pt  
--------------------------------------------------------------------------

******************************************************
TEST#01 time: 1.033662e-01
TEST#02 time: 1.034836e-01
TEST#03 time: 1.034843e-01
TEST#04 time: 1.033640e-01
******************************************************
Rank 0 of 4 <0,0,0,0>  R00-M1-N00-J23: Participating process 0 of 4


Rank 1 of 4 <0,0,0,1>  R00-M1-N00-J23: Participating process 1 of 4
Rank 2 of 4 <0,0,0,2>  R00-M1-N00-J23: Participating process 2 of 4

Rank 3 of 4 <0,0,0,3>  R00-M1-N00-J23: Participating process 3 of 4
******************************************************
Actions: 
L3 flushed: 0
L1 flushed: 0
L1 touched: 0

******************************************************
[bagm-mute-27-point 1x1 jam Kernel - FMA OPS DISABLED]
Jams in i: 1
Jams in j: 1
Number of tests    4
Number of stencils 3937248
Ni: 254 Nj: 254 Nk: 64 
Total memory allocation ~ 66064384 B
total flops:       2.086741e-01 G 
total time(s)    : 4.136981e-01
time/test(s)     : 1.034245e-01
******************************************************
******************************************************
******************************************************
GFlop/s     AVG: 2.017646e+00  
MStencil/s  AVG: 38.068802  
******************************************************
GFlop/s     MAX: 2.018828e+00  
MStencil/s  MAX: 38.091103  
******************************************************
GFlop/s     MIN: 2.016481e+00  
MStencil/s  MIN: 38.046807  
******************************************************
==========================================================================
make MUTANT_KERNEL=bagm_mute_27pt DRIVER_OPTS=" -DVERIFY=0 -DN_TESTS=4 -DPRINT_TIME_DETAILS=1 -DN_I=254 -DN_J=254 -DN_K=64 -DFLUSH_ALL_CACHES=0 -DN_CYCLES=100 " BUILDER_OPTS="-v 0 -i 1 --no_fma 1 --unroll_i 1 --unroll_j 2 " -B
--------------------------------------------------------------------------
mkdir -p build
./build.py -k bagm_mute_27pt -v 0 -i 1 --no_fma 1 --unroll_i 1 --unroll_j 2 
gen_header_defines: 0
gen_initialize_registers: 0
gen_inner_iter: 139
gen_prologue: 38
/bgsys/drivers/ppcfloor/comm/bin/mpixlc_r -O3 -qstrict -Ibuild -o build/driver.o -c drivers/driver.c -DVERIFY=0 -DN_TESTS=4 -DPRINT_TIME_DETAILS=1  -DN_I=254 -DN_J=254 -DN_K=64 -DFLUSH_ALL_CACHES=0 -DN_CYCLES=100  -qnosmp
/bgsys/drivers/ppcfloor/comm/bin/mpixlc_r -O3 -qstrict -o build/c_kernel.o -c drivers/c_kernel.c -DVERIFY=0 -DN_TESTS=4 -DPRINT_TIME_DETAILS=1  -DN_I=254 -DN_J=254 -DN_K=64 -DFLUSH_ALL_CACHES=0 -DN_CYCLES=100 
/bgsys/drivers/ppcfloor/comm/bin/mpixlf90_r -O5 -qextname -o build/fortran_kernel.o -c drivers/fortran_kernel.F90
/bgsys/drivers/ppcfloor/comm/bin/mpixlc_r -O3 -qstrict -o build/bagm_mute_27pt build/driver.o build/c_kernel.o build/fortran_kernel.o  
--------------------------------------------------------------------------
/bgsys/drivers/ppcfloor/bin/mpirun -exp_env LD_LIBRARY_PATH -exp_env PYTHONPATH -env BG_MAPPING=TXYZ -np 4 -mode VN ./build/bagm_mute_27pt  
--------------------------------------------------------------------------

******************************************************
TEST#01 time: 1.044885e-01
TEST#02 time: 1.041565e-01
TEST#03 time: 1.043341e-01
TEST#04 time: 1.039854e-01
******************************************************
Rank 0 of 4 <0,0,0,0>  R00-M1-N00-J23: Participating process 0 of 4


Rank 1 of 4 <0,0,0,1>  R00-M1-N00-J23: Participating process 1 of 4
Rank 2 of 4 <0,0,0,2>  R00-M1-N00-J23: Participating process 2 of 4

Rank 3 of 4 <0,0,0,3>  R00-M1-N00-J23: Participating process 3 of 4
******************************************************
Actions: 
L3 flushed: 0
L1 flushed: 0
L1 touched: 0

******************************************************
[bagm-mute-27-point 1x2 jam Kernel - FMA OPS DISABLED]
Jams in i: 1
Jams in j: 2
Number of tests    4
Number of stencils 3937248
Ni: 254 Nj: 254 Nk: 64 
Total memory allocation ~ 66064384 B
total flops:       2.086741e-01 G 
total time(s)    : 4.169646e-01
time/test(s)     : 1.042411e-01
******************************************************
******************************************************
******************************************************
GFlop/s     AVG: 2.001841e+00  
MStencil/s  AVG: 37.770577  
******************************************************
GFlop/s     MAX: 2.006763e+00  
MStencil/s  MAX: 37.863460  
******************************************************
GFlop/s     MIN: 1.997101e+00  
MStencil/s  MIN: 37.681150  
******************************************************
==========================================================================
make MUTANT_KERNEL=bagm_mute_27pt DRIVER_OPTS=" -DVERIFY=0 -DN_TESTS=4 -DPRINT_TIME_DETAILS=1 -DN_I=254 -DN_J=254 -DN_K=64 -DFLUSH_ALL_CACHES=0 -DN_CYCLES=100 " BUILDER_OPTS="-v 0 -i 1 --no_fma 1 --unroll_i 1 --unroll_j 3 " -B
--------------------------------------------------------------------------
mkdir -p build
./build.py -k bagm_mute_27pt -v 0 -i 1 --no_fma 1 --unroll_i 1 --unroll_j 3 
gen_header_defines: 0
gen_initialize_registers: 0
gen_inner_iter: 143
gen_prologue: 44
/bgsys/drivers/ppcfloor/comm/bin/mpixlc_r -O3 -qstrict -Ibuild -o build/driver.o -c drivers/driver.c -DVERIFY=0 -DN_TESTS=4 -DPRINT_TIME_DETAILS=1  -DN_I=254 -DN_J=254 -DN_K=64 -DFLUSH_ALL_CACHES=0 -DN_CYCLES=100  -qnosmp
/bgsys/drivers/ppcfloor/comm/bin/mpixlc_r -O3 -qstrict -o build/c_kernel.o -c drivers/c_kernel.c -DVERIFY=0 -DN_TESTS=4 -DPRINT_TIME_DETAILS=1  -DN_I=254 -DN_J=254 -DN_K=64 -DFLUSH_ALL_CACHES=0 -DN_CYCLES=100 
/bgsys/drivers/ppcfloor/comm/bin/mpixlf90_r -O5 -qextname -o build/fortran_kernel.o -c drivers/fortran_kernel.F90
/bgsys/drivers/ppcfloor/comm/bin/mpixlc_r -O3 -qstrict -o build/bagm_mute_27pt build/driver.o build/c_kernel.o build/fortran_kernel.o  
--------------------------------------------------------------------------
/bgsys/drivers/ppcfloor/bin/mpirun -exp_env LD_LIBRARY_PATH -exp_env PYTHONPATH -env BG_MAPPING=TXYZ -np 4 -mode VN ./build/bagm_mute_27pt  
--------------------------------------------------------------------------

******************************************************
TEST#01 time: 1.030976e-01
TEST#02 time: 1.027747e-01
TEST#03 time: 1.024970e-01
TEST#04 time: 1.012776e-01
******************************************************
Rank 0 of 4 <0,0,0,0>  R00-M1-N00-J23: Participating process 0 of 4


Rank 2 of 4 <0,0,0,2>  R00-M1-N00-J23: Participating process 2 of 4

Rank 1 of 4 <0,0,0,1>  R00-M1-N00-J23: Participating process 1 of 4
Rank 3 of 4 <0,0,0,3>  R00-M1-N00-J23: Participating process 3 of 4
******************************************************
Actions: 
L3 flushed: 0
L1 flushed: 0
L1 touched: 0

******************************************************
[bagm-mute-27-point 1x3 jam Kernel - FMA OPS DISABLED]
Jams in i: 1
Jams in j: 3
Number of tests    4
Number of stencils 3937248
Ni: 254 Nj: 254 Nk: 64 
Total memory allocation ~ 66064384 B
total flops:       2.086741e-01 G 
total time(s)    : 4.096470e-01
time/test(s)     : 1.024118e-01
******************************************************
******************************************************
******************************************************
GFlop/s     AVG: 2.037599e+00  
MStencil/s  AVG: 38.445272  
******************************************************
GFlop/s     MAX: 2.060417e+00  
MStencil/s  MAX: 38.875800  
******************************************************
GFlop/s     MIN: 2.024044e+00  
MStencil/s  MIN: 38.189504  
******************************************************
==========================================================================
make MUTANT_KERNEL=bagm_mute_27pt DRIVER_OPTS=" -DVERIFY=0 -DN_TESTS=4 -DPRINT_TIME_DETAILS=1 -DN_I=254 -DN_J=254 -DN_K=64 -DFLUSH_ALL_CACHES=0 -DN_CYCLES=100 " BUILDER_OPTS="-v 0 -i 1 --no_fma 1 --unroll_i 2 --unroll_j 2 " -B
--------------------------------------------------------------------------
mkdir -p build
./build.py -k bagm_mute_27pt -v 0 -i 1 --no_fma 1 --unroll_i 2 --unroll_j 2 
gen_header_defines: 0
gen_initialize_registers: 0
gen_inner_iter: 147
gen_prologue: 46
/bgsys/drivers/ppcfloor/comm/bin/mpixlc_r -O3 -qstrict -Ibuild -o build/driver.o -c drivers/driver.c -DVERIFY=0 -DN_TESTS=4 -DPRINT_TIME_DETAILS=1  -DN_I=254 -DN_J=254 -DN_K=64 -DFLUSH_ALL_CACHES=0 -DN_CYCLES=100  -qnosmp
/bgsys/drivers/ppcfloor/comm/bin/mpixlc_r -O3 -qstrict -o build/c_kernel.o -c drivers/c_kernel.c -DVERIFY=0 -DN_TESTS=4 -DPRINT_TIME_DETAILS=1  -DN_I=254 -DN_J=254 -DN_K=64 -DFLUSH_ALL_CACHES=0 -DN_CYCLES=100 
/bgsys/drivers/ppcfloor/comm/bin/mpixlf90_r -O5 -qextname -o build/fortran_kernel.o -c drivers/fortran_kernel.F90
/bgsys/drivers/ppcfloor/comm/bin/mpixlc_r -O3 -qstrict -o build/bagm_mute_27pt build/driver.o build/c_kernel.o build/fortran_kernel.o  
--------------------------------------------------------------------------
/bgsys/drivers/ppcfloor/bin/mpirun -exp_env LD_LIBRARY_PATH -exp_env PYTHONPATH -env BG_MAPPING=TXYZ -np 4 -mode VN ./build/bagm_mute_27pt  
--------------------------------------------------------------------------

******************************************************
TEST#01 time: 7.456750e-02
TEST#02 time: 7.306204e-02
TEST#03 time: 7.291815e-02
TEST#04 time: 7.319709e-02
******************************************************

Rank 0 of 4 <0,0,0,0>  R00-M1-N00-J23: Participating process 0 of 4
Rank 1 of 4 <0,0,0,1>  R00-M1-N00-J23: Participating process 1 of 4


Rank 2 of 4 <0,0,0,2>  R00-M1-N00-J23: Participating process 2 of 4
Rank 3 of 4 <0,0,0,3>  R00-M1-N00-J23: Participating process 3 of 4
******************************************************
Actions: 
L3 flushed: 0
L1 flushed: 0
L1 touched: 0

******************************************************
[bagm-mute-27-point 2x2 jam Kernel - FMA OPS DISABLED]
Jams in i: 2
Jams in j: 2
Number of tests    4
Number of stencils 3937248
Ni: 254 Nj: 254 Nk: 64 
Total memory allocation ~ 66064384 B
total flops:       2.086741e-01 G 
total time(s)    : 2.937448e-01
time/test(s)     : 7.343620e-02
******************************************************
******************************************************
******************************************************
GFlop/s     AVG: 2.841571e+00  
MStencil/s  AVG: 53.614541  
******************************************************
GFlop/s     MAX: 2.861759e+00  
MStencil/s  MAX: 53.995443  
******************************************************
GFlop/s     MIN: 2.798460e+00  
MStencil/s  MIN: 52.801124  
******************************************************
==========================================================================
make MUTANT_KERNEL=bagm_mute_27pt DRIVER_OPTS=" -DVERIFY=0 -DN_TESTS=4 -DPRINT_TIME_DETAILS=1 -DN_I=254 -DN_J=254 -DN_K=64 -DFLUSH_ALL_CACHES=0 -DN_CYCLES=100 " BUILDER_OPTS="-v 0 -i 1 --no_fma 1 --unroll_i 2 --unroll_j 3 " -B
--------------------------------------------------------------------------
mkdir -p build
./build.py -k bagm_mute_27pt -v 0 -i 1 --no_fma 1 --unroll_i 2 --unroll_j 3 
gen_header_defines: 0
gen_initialize_registers: 0
gen_inner_iter: 181
gen_prologue: 54
/bgsys/drivers/ppcfloor/comm/bin/mpixlc_r -O3 -qstrict -Ibuild -o build/driver.o -c drivers/driver.c -DVERIFY=0 -DN_TESTS=4 -DPRINT_TIME_DETAILS=1  -DN_I=254 -DN_J=254 -DN_K=64 -DFLUSH_ALL_CACHES=0 -DN_CYCLES=100  -qnosmp
/bgsys/drivers/ppcfloor/comm/bin/mpixlc_r -O3 -qstrict -o build/c_kernel.o -c drivers/c_kernel.c -DVERIFY=0 -DN_TESTS=4 -DPRINT_TIME_DETAILS=1  -DN_I=254 -DN_J=254 -DN_K=64 -DFLUSH_ALL_CACHES=0 -DN_CYCLES=100 
/bgsys/drivers/ppcfloor/comm/bin/mpixlf90_r -O5 -qextname -o build/fortran_kernel.o -c drivers/fortran_kernel.F90
/bgsys/drivers/ppcfloor/comm/bin/mpixlc_r -O3 -qstrict -o build/bagm_mute_27pt build/driver.o build/c_kernel.o build/fortran_kernel.o  
--------------------------------------------------------------------------
/bgsys/drivers/ppcfloor/bin/mpirun -exp_env LD_LIBRARY_PATH -exp_env PYTHONPATH -env BG_MAPPING=TXYZ -np 4 -mode VN ./build/bagm_mute_27pt  
--------------------------------------------------------------------------

******************************************************
TEST#01 time: 7.473112e-02
TEST#02 time: 7.348108e-02
TEST#03 time: 7.348944e-02
TEST#04 time: 7.349381e-02
******************************************************
Rank 0 of 4 <0,0,0,0>  R00-M1-N00-J23: Participating process 0 of 4


Rank 1 of 4 <0,0,0,1>  R00-M1-N00-J23: Participating process 1 of 4

Rank 3 of 4 <0,0,0,3>  R00-M1-N00-J23: Participating process 3 of 4
Rank 2 of 4 <0,0,0,2>  R00-M1-N00-J23: Participating process 2 of 4
******************************************************
Actions: 
L3 flushed: 0
L1 flushed: 0
L1 touched: 0

******************************************************
[bagm-mute-27-point 2x3 jam Kernel - FMA OPS DISABLED]
Jams in i: 2
Jams in j: 3
Number of tests    4
Number of stencils 3937248
Ni: 254 Nj: 254 Nk: 64 
Total memory allocation ~ 66064384 B
total flops:       2.086741e-01 G 
total time(s)    : 2.951954e-01
time/test(s)     : 7.379886e-02
******************************************************
******************************************************
******************************************************
GFlop/s     AVG: 2.827607e+00  
MStencil/s  AVG: 53.351067  
******************************************************
GFlop/s     MAX: 2.839835e+00  
MStencil/s  MAX: 53.581793  
******************************************************
GFlop/s     MIN: 2.792333e+00  
MStencil/s  MIN: 52.685524  
******************************************************
==========================================================================
make MUTANT_KERNEL=bagm_mute_27pt DRIVER_OPTS=" -DVERIFY=0 -DN_TESTS=4 -DPRINT_TIME_DETAILS=1 -DN_I=4 -DN_J=14 -DN_K=14 -DFLUSH_ALL_CACHES=1 -DN_CYCLES=1 " BUILDER_OPTS="-v 0 -i 1 --no_fma 1 --unroll_i 1 --unroll_j 1 " -B
--------------------------------------------------------------------------
mkdir -p build
./build.py -k bagm_mute_27pt -v 0 -i 1 --no_fma 1 --unroll_i 1 --unroll_j 1 
gen_header_defines: 0
gen_initialize_registers: 0
gen_inner_iter: 135
gen_prologue: 32
/bgsys/drivers/ppcfloor/comm/bin/mpixlc_r -O3 -qstrict -Ibuild -o build/driver.o -c drivers/driver.c -DVERIFY=0 -DN_TESTS=4 -DPRINT_TIME_DETAILS=1  -DN_I=4 -DN_J=14 -DN_K=14 -DFLUSH_ALL_CACHES=1 -DN_CYCLES=1  -qnosmp
/bgsys/drivers/ppcfloor/comm/bin/mpixlc_r -O3 -qstrict -o build/c_kernel.o -c drivers/c_kernel.c -DVERIFY=0 -DN_TESTS=4 -DPRINT_TIME_DETAILS=1  -DN_I=4 -DN_J=14 -DN_K=14 -DFLUSH_ALL_CACHES=1 -DN_CYCLES=1 
/bgsys/drivers/ppcfloor/comm/bin/mpixlf90_r -O5 -qextname -o build/fortran_kernel.o -c drivers/fortran_kernel.F90
/bgsys/drivers/ppcfloor/comm/bin/mpixlc_r -O3 -qstrict -o build/bagm_mute_27pt build/driver.o build/c_kernel.o build/fortran_kernel.o  
--------------------------------------------------------------------------
/bgsys/drivers/ppcfloor/bin/mpirun -exp_env LD_LIBRARY_PATH -exp_env PYTHONPATH -env BG_MAPPING=TXYZ -np 4 -mode VN ./build/bagm_mute_27pt  
--------------------------------------------------------------------------

******************************************************
TEST#01 time: 1.069882e-05
TEST#02 time: 9.689412e-06
TEST#03 time: 9.527059e-06
TEST#04 time: 9.404706e-06
******************************************************
Rank 0 of 4 <0,0,0,0>  R00-M1-N00-J23: Participating process 0 of 4


Rank 1 of 4 <0,0,0,1>  R00-M1-N00-J23: Participating process 1 of 4
Rank 2 of 4 <0,0,0,2>  R00-M1-N00-J23: Participating process 2 of 4

Rank 3 of 4 <0,0,0,3>  R00-M1-N00-J23: Participating process 3 of 4
******************************************************
Actions: 
L3 flushed: 1
L1 flushed: 0
L1 touched: 0

******************************************************
[bagm-mute-27-point 1x1 jam Kernel - FMA OPS DISABLED]
Jams in i: 1
Jams in j: 1
Number of tests    4
Number of stencils 288
Ni: 4 Nj: 14 Nk: 14 
Total memory allocation ~ 12544 B
total flops:       1.526400e-05 G 
total time(s)    : 3.932000e-05
time/test(s)     : 9.830000e-06
******************************************************
******************************************************
******************************************************
GFlop/s     AVG: 1.552798e+00  
MStencil/s  AVG: 29.298067  
******************************************************
GFlop/s     MAX: 1.623017e+00  
MStencil/s  MAX: 30.622967  
******************************************************
GFlop/s     MIN: 1.426699e+00  
MStencil/s  MIN: 26.918848  
******************************************************
==========================================================================
make MUTANT_KERNEL=bagm_mute_27pt DRIVER_OPTS=" -DVERIFY=0 -DN_TESTS=4 -DPRINT_TIME_DETAILS=1 -DN_I=4 -DN_J=14 -DN_K=14 -DFLUSH_ALL_CACHES=1 -DN_CYCLES=1 " BUILDER_OPTS="-v 0 -i 1 --no_fma 1 --unroll_i 1 --unroll_j 2 " -B
--------------------------------------------------------------------------
mkdir -p build
./build.py -k bagm_mute_27pt -v 0 -i 1 --no_fma 1 --unroll_i 1 --unroll_j 2 
gen_header_defines: 0
gen_initialize_registers: 0
gen_inner_iter: 139
gen_prologue: 38
/bgsys/drivers/ppcfloor/comm/bin/mpixlc_r -O3 -qstrict -Ibuild -o build/driver.o -c drivers/driver.c -DVERIFY=0 -DN_TESTS=4 -DPRINT_TIME_DETAILS=1  -DN_I=4 -DN_J=14 -DN_K=14 -DFLUSH_ALL_CACHES=1 -DN_CYCLES=1  -qnosmp
/bgsys/drivers/ppcfloor/comm/bin/mpixlc_r -O3 -qstrict -o build/c_kernel.o -c drivers/c_kernel.c -DVERIFY=0 -DN_TESTS=4 -DPRINT_TIME_DETAILS=1  -DN_I=4 -DN_J=14 -DN_K=14 -DFLUSH_ALL_CACHES=1 -DN_CYCLES=1 
/bgsys/drivers/ppcfloor/comm/bin/mpixlf90_r -O5 -qextname -o build/fortran_kernel.o -c drivers/fortran_kernel.F90
/bgsys/drivers/ppcfloor/comm/bin/mpixlc_r -O3 -qstrict -o build/bagm_mute_27pt build/driver.o build/c_kernel.o build/fortran_kernel.o  
--------------------------------------------------------------------------
/bgsys/drivers/ppcfloor/bin/mpirun -exp_env LD_LIBRARY_PATH -exp_env PYTHONPATH -env BG_MAPPING=TXYZ -np 4 -mode VN ./build/bagm_mute_27pt  
--------------------------------------------------------------------------

******************************************************
TEST#01 time: 8.590588e-06
TEST#02 time: 7.558824e-06
TEST#03 time: 7.309412e-06
TEST#04 time: 7.260000e-06
******************************************************
Rank 0 of 4 <0,0,0,0>  R00-M1-N00-J23: Participating process 0 of 4


Rank 1 of 4 <0,0,0,1>  R00-M1-N00-J23: Participating process 1 of 4

Rank 3 of 4 <0,0,0,3>  R00-M1-N00-J23: Participating process 3 of 4
Rank 2 of 4 <0,0,0,2>  R00-M1-N00-J23: Participating process 2 of 4
******************************************************
Actions: 
L3 flushed: 1
L1 flushed: 0
L1 touched: 0

******************************************************
[bagm-mute-27-point 1x2 jam Kernel - FMA OPS DISABLED]
Jams in i: 1
Jams in j: 2
Number of tests    4
Number of stencils 288
Ni: 4 Nj: 14 Nk: 14 
Total memory allocation ~ 12544 B
total flops:       1.526400e-05 G 
total time(s)    : 3.071882e-05
time/test(s)     : 7.679706e-06
******************************************************
******************************************************
******************************************************
GFlop/s     AVG: 1.987576e+00  
MStencil/s  AVG: 37.501436  
******************************************************
GFlop/s     MAX: 2.102479e+00  
MStencil/s  MAX: 39.669421  
******************************************************
GFlop/s     MIN: 1.776828e+00  
MStencil/s  MIN: 33.525062  
******************************************************
==========================================================================
make MUTANT_KERNEL=bagm_mute_27pt DRIVER_OPTS=" -DVERIFY=0 -DN_TESTS=4 -DPRINT_TIME_DETAILS=1 -DN_I=4 -DN_J=14 -DN_K=14 -DFLUSH_ALL_CACHES=1 -DN_CYCLES=1 " BUILDER_OPTS="-v 0 -i 1 --no_fma 1 --unroll_i 1 --unroll_j 3 " -B
--------------------------------------------------------------------------
mkdir -p build
./build.py -k bagm_mute_27pt -v 0 -i 1 --no_fma 1 --unroll_i 1 --unroll_j 3 
gen_header_defines: 0
gen_initialize_registers: 0
gen_inner_iter: 143
gen_prologue: 44
/bgsys/drivers/ppcfloor/comm/bin/mpixlc_r -O3 -qstrict -Ibuild -o build/driver.o -c drivers/driver.c -DVERIFY=0 -DN_TESTS=4 -DPRINT_TIME_DETAILS=1  -DN_I=4 -DN_J=14 -DN_K=14 -DFLUSH_ALL_CACHES=1 -DN_CYCLES=1  -qnosmp
/bgsys/drivers/ppcfloor/comm/bin/mpixlc_r -O3 -qstrict -o build/c_kernel.o -c drivers/c_kernel.c -DVERIFY=0 -DN_TESTS=4 -DPRINT_TIME_DETAILS=1  -DN_I=4 -DN_J=14 -DN_K=14 -DFLUSH_ALL_CACHES=1 -DN_CYCLES=1 
/bgsys/drivers/ppcfloor/comm/bin/mpixlf90_r -O5 -qextname -o build/fortran_kernel.o -c drivers/fortran_kernel.F90
/bgsys/drivers/ppcfloor/comm/bin/mpixlc_r -O3 -qstrict -o build/bagm_mute_27pt build/driver.o build/c_kernel.o build/fortran_kernel.o  
--------------------------------------------------------------------------
/bgsys/drivers/ppcfloor/bin/mpirun -exp_env LD_LIBRARY_PATH -exp_env PYTHONPATH -env BG_MAPPING=TXYZ -np 4 -mode VN ./build/bagm_mute_27pt  
--------------------------------------------------------------------------

******************************************************
TEST#01 time: 8.121176e-06
TEST#02 time: 7.147059e-06
TEST#03 time: 6.881176e-06
TEST#04 time: 6.831765e-06
******************************************************
Rank 0 of 4 <0,0,0,0>  R00-M1-N00-J23: Participating process 0 of 4

Rank 1 of 4 <0,0,0,1>  R00-M1-N00-J23: Participating process 1 of 4


Rank 2 of 4 <0,0,0,2>  R00-M1-N00-J23: Participating process 2 of 4
Rank 3 of 4 <0,0,0,3>  R00-M1-N00-J23: Participating process 3 of 4
******************************************************
Actions: 
L3 flushed: 1
L1 flushed: 0
L1 touched: 0

******************************************************
[bagm-mute-27-point 1x3 jam Kernel - FMA OPS DISABLED]
Jams in i: 1
Jams in j: 3
Number of tests    4
Number of stencils 288
Ni: 4 Nj: 14 Nk: 14 
Total memory allocation ~ 12544 B
total flops:       1.526400e-05 G 
total time(s)    : 2.898118e-05
time/test(s)     : 7.245294e-06
******************************************************
******************************************************
******************************************************
GFlop/s     AVG: 2.106747e+00  
MStencil/s  AVG: 39.749939  
******************************************************
GFlop/s     MAX: 2.234269e+00  
MStencil/s  MAX: 42.156019  
******************************************************
GFlop/s     MIN: 1.879531e+00  
MStencil/s  MIN: 35.462842  
******************************************************
==========================================================================
make MUTANT_KERNEL=bagm_mute_27pt DRIVER_OPTS=" -DVERIFY=0 -DN_TESTS=4 -DPRINT_TIME_DETAILS=1 -DN_I=4 -DN_J=14 -DN_K=14 -DFLUSH_ALL_CACHES=1 -DN_CYCLES=1 " BUILDER_OPTS="-v 0 -i 1 --no_fma 1 --unroll_i 2 --unroll_j 2 " -B
--------------------------------------------------------------------------
mkdir -p build
./build.py -k bagm_mute_27pt -v 0 -i 1 --no_fma 1 --unroll_i 2 --unroll_j 2 
gen_header_defines: 0
gen_initialize_registers: 0
gen_inner_iter: 147
gen_prologue: 46
/bgsys/drivers/ppcfloor/comm/bin/mpixlc_r -O3 -qstrict -Ibuild -o build/driver.o -c drivers/driver.c -DVERIFY=0 -DN_TESTS=4 -DPRINT_TIME_DETAILS=1  -DN_I=4 -DN_J=14 -DN_K=14 -DFLUSH_ALL_CACHES=1 -DN_CYCLES=1  -qnosmp
/bgsys/drivers/ppcfloor/comm/bin/mpixlc_r -O3 -qstrict -o build/c_kernel.o -c drivers/c_kernel.c -DVERIFY=0 -DN_TESTS=4 -DPRINT_TIME_DETAILS=1  -DN_I=4 -DN_J=14 -DN_K=14 -DFLUSH_ALL_CACHES=1 -DN_CYCLES=1 
/bgsys/drivers/ppcfloor/comm/bin/mpixlf90_r -O5 -qextname -o build/fortran_kernel.o -c drivers/fortran_kernel.F90
/bgsys/drivers/ppcfloor/comm/bin/mpixlc_r -O3 -qstrict -o build/bagm_mute_27pt build/driver.o build/c_kernel.o build/fortran_kernel.o  
--------------------------------------------------------------------------
/bgsys/drivers/ppcfloor/bin/mpirun -exp_env LD_LIBRARY_PATH -exp_env PYTHONPATH -env BG_MAPPING=TXYZ -np 4 -mode VN ./build/bagm_mute_27pt  
--------------------------------------------------------------------------

******************************************************
TEST#01 time: 7.854118e-06
TEST#02 time: 6.558824e-06
TEST#03 time: 6.584706e-06
TEST#04 time: 6.417647e-06
******************************************************
Rank 0 of 4 <0,0,0,0>  R00-M1-N00-J23: Participating process 0 of 4



Rank 1 of 4 <0,0,0,1>  R00-M1-N00-J23: Participating process 1 of 4
Rank 3 of 4 <0,0,0,3>  R00-M1-N00-J23: Participating process 3 of 4
Rank 2 of 4 <0,0,0,2>  R00-M1-N00-J23: Participating process 2 of 4
******************************************************
Actions: 
L3 flushed: 1
L1 flushed: 0
L1 touched: 0

******************************************************
[bagm-mute-27-point 2x2 jam Kernel - FMA OPS DISABLED]
Jams in i: 2
Jams in j: 2
Number of tests    4
Number of stencils 288
Ni: 4 Nj: 14 Nk: 14 
Total memory allocation ~ 12544 B
total flops:       1.526400e-05 G 
total time(s)    : 2.741529e-05
time/test(s)     : 6.853824e-06
******************************************************
******************************************************
******************************************************
GFlop/s     AVG: 2.227078e+00  
MStencil/s  AVG: 42.020341  
******************************************************
GFlop/s     MAX: 2.378442e+00  
MStencil/s  MAX: 44.876260  
******************************************************
GFlop/s     MIN: 1.943439e+00  
MStencil/s  MIN: 36.668664  
******************************************************
==========================================================================
make MUTANT_KERNEL=bagm_mute_27pt DRIVER_OPTS=" -DVERIFY=0 -DN_TESTS=4 -DPRINT_TIME_DETAILS=1 -DN_I=4 -DN_J=14 -DN_K=14 -DFLUSH_ALL_CACHES=1 -DN_CYCLES=1 " BUILDER_OPTS="-v 0 -i 1 --no_fma 1 --unroll_i 2 --unroll_j 3 " -B
--------------------------------------------------------------------------
mkdir -p build
./build.py -k bagm_mute_27pt -v 0 -i 1 --no_fma 1 --unroll_i 2 --unroll_j 3 
gen_header_defines: 0
gen_initialize_registers: 0
gen_inner_iter: 181
gen_prologue: 54
/bgsys/drivers/ppcfloor/comm/bin/mpixlc_r -O3 -qstrict -Ibuild -o build/driver.o -c drivers/driver.c -DVERIFY=0 -DN_TESTS=4 -DPRINT_TIME_DETAILS=1  -DN_I=4 -DN_J=14 -DN_K=14 -DFLUSH_ALL_CACHES=1 -DN_CYCLES=1  -qnosmp
/bgsys/drivers/ppcfloor/comm/bin/mpixlc_r -O3 -qstrict -o build/c_kernel.o -c drivers/c_kernel.c -DVERIFY=0 -DN_TESTS=4 -DPRINT_TIME_DETAILS=1  -DN_I=4 -DN_J=14 -DN_K=14 -DFLUSH_ALL_CACHES=1 -DN_CYCLES=1 
/bgsys/drivers/ppcfloor/comm/bin/mpixlf90_r -O5 -qextname -o build/fortran_kernel.o -c drivers/fortran_kernel.F90
/bgsys/drivers/ppcfloor/comm/bin/mpixlc_r -O3 -qstrict -o build/bagm_mute_27pt build/driver.o build/c_kernel.o build/fortran_kernel.o  
--------------------------------------------------------------------------
/bgsys/drivers/ppcfloor/bin/mpirun -exp_env LD_LIBRARY_PATH -exp_env PYTHONPATH -env BG_MAPPING=TXYZ -np 4 -mode VN ./build/bagm_mute_27pt  
--------------------------------------------------------------------------

******************************************************
TEST#01 time: 8.409412e-06
TEST#02 time: 6.687059e-06
TEST#03 time: 6.437647e-06
TEST#04 time: 6.214118e-06
******************************************************
Rank 0 of 4 <0,0,0,0>  R00-M1-N00-J23: Participating process 0 of 4



Rank 1 of 4 <0,0,0,1>  R00-M1-N00-J23: Participating process 1 of 4
Rank 2 of 4 <0,0,0,2>  R00-M1-N00-J23: Participating process 2 of 4
Rank 3 of 4 <0,0,0,3>  R00-M1-N00-J23: Participating process 3 of 4
******************************************************
Actions: 
L3 flushed: 1
L1 flushed: 0
L1 touched: 0

******************************************************
[bagm-mute-27-point 2x3 jam Kernel - FMA OPS DISABLED]
Jams in i: 2
Jams in j: 3
Number of tests    4
Number of stencils 288
Ni: 4 Nj: 14 Nk: 14 
Total memory allocation ~ 12544 B
total flops:       1.526400e-05 G 
total time(s)    : 2.774824e-05
time/test(s)     : 6.937059e-06
******************************************************
******************************************************
******************************************************
GFlop/s     AVG: 2.200356e+00  
MStencil/s  AVG: 41.516154  
******************************************************
GFlop/s     MAX: 2.456342e+00  
MStencil/s  MAX: 46.346081  
******************************************************
GFlop/s     MIN: 1.815109e+00  
MStencil/s  MIN: 34.247342  
******************************************************
==========================================================================
make MUTANT_KERNEL=bagm_mute_27pt DRIVER_OPTS=" -DVERIFY=0 -DN_TESTS=4 -DPRINT_TIME_DETAILS=1 -DN_I=254 -DN_J=254 -DN_K=64 -DFLUSH_ALL_CACHES=1 -DN_CYCLES=1 " BUILDER_OPTS="-v 0 -i 1 --no_fma 1 --unroll_i 1 --unroll_j 1 " -B
--------------------------------------------------------------------------
mkdir -p build
./build.py -k bagm_mute_27pt -v 0 -i 1 --no_fma 1 --unroll_i 1 --unroll_j 1 
gen_header_defines: 0
gen_initialize_registers: 0
gen_inner_iter: 135
gen_prologue: 32
/bgsys/drivers/ppcfloor/comm/bin/mpixlc_r -O3 -qstrict -Ibuild -o build/driver.o -c drivers/driver.c -DVERIFY=0 -DN_TESTS=4 -DPRINT_TIME_DETAILS=1  -DN_I=254 -DN_J=254 -DN_K=64 -DFLUSH_ALL_CACHES=1 -DN_CYCLES=1  -qnosmp
/bgsys/drivers/ppcfloor/comm/bin/mpixlc_r -O3 -qstrict -o build/c_kernel.o -c drivers/c_kernel.c -DVERIFY=0 -DN_TESTS=4 -DPRINT_TIME_DETAILS=1  -DN_I=254 -DN_J=254 -DN_K=64 -DFLUSH_ALL_CACHES=1 -DN_CYCLES=1 
/bgsys/drivers/ppcfloor/comm/bin/mpixlf90_r -O5 -qextname -o build/fortran_kernel.o -c drivers/fortran_kernel.F90
/bgsys/drivers/ppcfloor/comm/bin/mpixlc_r -O3 -qstrict -o build/bagm_mute_27pt build/driver.o build/c_kernel.o build/fortran_kernel.o  
--------------------------------------------------------------------------
/bgsys/drivers/ppcfloor/bin/mpirun -exp_env LD_LIBRARY_PATH -exp_env PYTHONPATH -env BG_MAPPING=TXYZ -np 4 -mode VN ./build/bagm_mute_27pt  
--------------------------------------------------------------------------

******************************************************
TEST#01 time: 1.034862e-01
TEST#02 time: 1.034844e-01
TEST#03 time: 1.034866e-01
TEST#04 time: 1.034826e-01
******************************************************
Rank 0 of 4 <0,0,0,0>  R00-M1-N00-J23: Participating process 0 of 4


Rank 1 of 4 <0,0,0,1>  R00-M1-N00-J23: Participating process 1 of 4
Rank 3 of 4 <0,0,0,3>  R00-M1-N00-J23: Participating process 3 of 4

Rank 2 of 4 <0,0,0,2>  R00-M1-N00-J23: Participating process 2 of 4
******************************************************
Actions: 
L3 flushed: 1
L1 flushed: 0
L1 touched: 0

******************************************************
[bagm-mute-27-point 1x1 jam Kernel - FMA OPS DISABLED]
Jams in i: 1
Jams in j: 1
Number of tests    4
Number of stencils 3937248
Ni: 254 Nj: 254 Nk: 64 
Total memory allocation ~ 66064384 B
total flops:       2.086741e-01 G 
total time(s)    : 4.139398e-01
time/test(s)     : 1.034850e-01
******************************************************
******************************************************
******************************************************
GFlop/s     AVG: 2.016469e+00  
MStencil/s  AVG: 38.046576  
******************************************************
GFlop/s     MAX: 2.016514e+00  
MStencil/s  MAX: 38.047428  
******************************************************
GFlop/s     MIN: 2.016436e+00  
MStencil/s  MIN: 38.045966  
******************************************************
==========================================================================
make MUTANT_KERNEL=bagm_mute_27pt DRIVER_OPTS=" -DVERIFY=0 -DN_TESTS=4 -DPRINT_TIME_DETAILS=1 -DN_I=254 -DN_J=254 -DN_K=64 -DFLUSH_ALL_CACHES=1 -DN_CYCLES=1 " BUILDER_OPTS="-v 0 -i 1 --no_fma 1 --unroll_i 1 --unroll_j 2 " -B
--------------------------------------------------------------------------
mkdir -p build
./build.py -k bagm_mute_27pt -v 0 -i 1 --no_fma 1 --unroll_i 1 --unroll_j 2 
gen_header_defines: 0
gen_initialize_registers: 0
gen_inner_iter: 139
gen_prologue: 38
/bgsys/drivers/ppcfloor/comm/bin/mpixlc_r -O3 -qstrict -Ibuild -o build/driver.o -c drivers/driver.c -DVERIFY=0 -DN_TESTS=4 -DPRINT_TIME_DETAILS=1  -DN_I=254 -DN_J=254 -DN_K=64 -DFLUSH_ALL_CACHES=1 -DN_CYCLES=1  -qnosmp
/bgsys/drivers/ppcfloor/comm/bin/mpixlc_r -O3 -qstrict -o build/c_kernel.o -c drivers/c_kernel.c -DVERIFY=0 -DN_TESTS=4 -DPRINT_TIME_DETAILS=1  -DN_I=254 -DN_J=254 -DN_K=64 -DFLUSH_ALL_CACHES=1 -DN_CYCLES=1 
/bgsys/drivers/ppcfloor/comm/bin/mpixlf90_r -O5 -qextname -o build/fortran_kernel.o -c drivers/fortran_kernel.F90
/bgsys/drivers/ppcfloor/comm/bin/mpixlc_r -O3 -qstrict -o build/bagm_mute_27pt build/driver.o build/c_kernel.o build/fortran_kernel.o  
--------------------------------------------------------------------------
/bgsys/drivers/ppcfloor/bin/mpirun -exp_env LD_LIBRARY_PATH -exp_env PYTHONPATH -env BG_MAPPING=TXYZ -np 4 -mode VN ./build/bagm_mute_27pt  
--------------------------------------------------------------------------

******************************************************
TEST#01 time: 1.046921e-01
TEST#02 time: 1.044480e-01
TEST#03 time: 1.042012e-01
TEST#04 time: 1.043087e-01
******************************************************

Rank 0 of 4 <0,0,0,0>  R00-M1-N00-J23: Participating process 0 of 4


Rank 1 of 4 <0,0,0,1>  R00-M1-N00-J23: Participating process 1 of 4
Rank 2 of 4 <0,0,0,2>  R00-M1-N00-J23: Participating process 2 of 4
Rank 3 of 4 <0,0,0,3>  R00-M1-N00-J23: Participating process 3 of 4
******************************************************
Actions: 
L3 flushed: 1
L1 flushed: 0
L1 touched: 0

******************************************************
[bagm-mute-27-point 1x2 jam Kernel - FMA OPS DISABLED]
Jams in i: 1
Jams in j: 2
Number of tests    4
Number of stencils 3937248
Ni: 254 Nj: 254 Nk: 64 
Total memory allocation ~ 66064384 B
total flops:       2.086741e-01 G 
total time(s)    : 4.176500e-01
time/test(s)     : 1.044125e-01
******************************************************
******************************************************
******************************************************
GFlop/s     AVG: 1.998555e+00  
MStencil/s  AVG: 37.708585  
******************************************************
GFlop/s     MAX: 2.002608e+00  
MStencil/s  MAX: 37.785051  
******************************************************
GFlop/s     MIN: 1.993217e+00  
MStencil/s  MIN: 37.607863  
******************************************************
==========================================================================
make MUTANT_KERNEL=bagm_mute_27pt DRIVER_OPTS=" -DVERIFY=0 -DN_TESTS=4 -DPRINT_TIME_DETAILS=1 -DN_I=254 -DN_J=254 -DN_K=64 -DFLUSH_ALL_CACHES=1 -DN_CYCLES=1 " BUILDER_OPTS="-v 0 -i 1 --no_fma 1 --unroll_i 1 --unroll_j 3 " -B
--------------------------------------------------------------------------
mkdir -p build
./build.py -k bagm_mute_27pt -v 0 -i 1 --no_fma 1 --unroll_i 1 --unroll_j 3 
gen_header_defines: 0
gen_initialize_registers: 0
gen_inner_iter: 143
gen_prologue: 44
/bgsys/drivers/ppcfloor/comm/bin/mpixlc_r -O3 -qstrict -Ibuild -o build/driver.o -c drivers/driver.c -DVERIFY=0 -DN_TESTS=4 -DPRINT_TIME_DETAILS=1  -DN_I=254 -DN_J=254 -DN_K=64 -DFLUSH_ALL_CACHES=1 -DN_CYCLES=1  -qnosmp
/bgsys/drivers/ppcfloor/comm/bin/mpixlc_r -O3 -qstrict -o build/c_kernel.o -c drivers/c_kernel.c -DVERIFY=0 -DN_TESTS=4 -DPRINT_TIME_DETAILS=1  -DN_I=254 -DN_J=254 -DN_K=64 -DFLUSH_ALL_CACHES=1 -DN_CYCLES=1 
/bgsys/drivers/ppcfloor/comm/bin/mpixlf90_r -O5 -qextname -o build/fortran_kernel.o -c drivers/fortran_kernel.F90
/bgsys/drivers/ppcfloor/comm/bin/mpixlc_r -O3 -qstrict -o build/bagm_mute_27pt build/driver.o build/c_kernel.o build/fortran_kernel.o  
--------------------------------------------------------------------------
/bgsys/drivers/ppcfloor/bin/mpirun -exp_env LD_LIBRARY_PATH -exp_env PYTHONPATH -env BG_MAPPING=TXYZ -np 4 -mode VN ./build/bagm_mute_27pt  
--------------------------------------------------------------------------

******************************************************
TEST#01 time: 1.027903e-01
TEST#02 time: 1.027859e-01
TEST#03 time: 1.027127e-01
TEST#04 time: 1.027595e-01
******************************************************
Rank 0 of 4 <0,0,0,0>  R00-M1-N00-J23: Participating process 0 of 4



Rank 1 of 4 <0,0,0,1>  R00-M1-N00-J23: Participating process 1 of 4
Rank 2 of 4 <0,0,0,2>  R00-M1-N00-J23: Participating process 2 of 4
Rank 3 of 4 <0,0,0,3>  R00-M1-N00-J23: Participating process 3 of 4
******************************************************
Actions: 
L3 flushed: 1
L1 flushed: 0
L1 touched: 0

******************************************************
[bagm-mute-27-point 1x3 jam Kernel - FMA OPS DISABLED]
Jams in i: 1
Jams in j: 3
Number of tests    4
Number of stencils 3937248
Ni: 254 Nj: 254 Nk: 64 
Total memory allocation ~ 66064384 B
total flops:       2.086741e-01 G 
total time(s)    : 4.110483e-01
time/test(s)     : 1.027621e-01
******************************************************
******************************************************
******************************************************
GFlop/s     AVG: 2.030653e+00  
MStencil/s  AVG: 38.314210  
******************************************************
GFlop/s     MAX: 2.031629e+00  
MStencil/s  MAX: 38.332621  
******************************************************
GFlop/s     MIN: 2.030096e+00  
MStencil/s  MIN: 38.303701  
******************************************************
==========================================================================
make MUTANT_KERNEL=bagm_mute_27pt DRIVER_OPTS=" -DVERIFY=0 -DN_TESTS=4 -DPRINT_TIME_DETAILS=1 -DN_I=254 -DN_J=254 -DN_K=64 -DFLUSH_ALL_CACHES=1 -DN_CYCLES=1 " BUILDER_OPTS="-v 0 -i 1 --no_fma 1 --unroll_i 2 --unroll_j 2 " -B
--------------------------------------------------------------------------
mkdir -p build
./build.py -k bagm_mute_27pt -v 0 -i 1 --no_fma 1 --unroll_i 2 --unroll_j 2 
gen_header_defines: 0
gen_initialize_registers: 0
gen_inner_iter: 147
gen_prologue: 46
/bgsys/drivers/ppcfloor/comm/bin/mpixlc_r -O3 -qstrict -Ibuild -o build/driver.o -c drivers/driver.c -DVERIFY=0 -DN_TESTS=4 -DPRINT_TIME_DETAILS=1  -DN_I=254 -DN_J=254 -DN_K=64 -DFLUSH_ALL_CACHES=1 -DN_CYCLES=1  -qnosmp
/bgsys/drivers/ppcfloor/comm/bin/mpixlc_r -O3 -qstrict -o build/c_kernel.o -c drivers/c_kernel.c -DVERIFY=0 -DN_TESTS=4 -DPRINT_TIME_DETAILS=1  -DN_I=254 -DN_J=254 -DN_K=64 -DFLUSH_ALL_CACHES=1 -DN_CYCLES=1 
/bgsys/drivers/ppcfloor/comm/bin/mpixlf90_r -O5 -qextname -o build/fortran_kernel.o -c drivers/fortran_kernel.F90
/bgsys/drivers/ppcfloor/comm/bin/mpixlc_r -O3 -qstrict -o build/bagm_mute_27pt build/driver.o build/c_kernel.o build/fortran_kernel.o  
--------------------------------------------------------------------------
/bgsys/drivers/ppcfloor/bin/mpirun -exp_env LD_LIBRARY_PATH -exp_env PYTHONPATH -env BG_MAPPING=TXYZ -np 4 -mode VN ./build/bagm_mute_27pt  
--------------------------------------------------------------------------

******************************************************
TEST#01 time: 7.434538e-02
TEST#02 time: 7.320717e-02
TEST#03 time: 7.296718e-02
TEST#04 time: 7.280876e-02
******************************************************
Rank 0 of 4 <0,0,0,0>  R00-M1-N00-J23: Participating process 0 of 4



Rank 1 of 4 <0,0,0,1>  R00-M1-N00-J23: Participating process 1 of 4
Rank 2 of 4 <0,0,0,2>  R00-M1-N00-J23: Participating process 2 of 4
Rank 3 of 4 <0,0,0,3>  R00-M1-N00-J23: Participating process 3 of 4
******************************************************
Actions: 
L3 flushed: 1
L1 flushed: 0
L1 touched: 0

******************************************************
[bagm-mute-27-point 2x2 jam Kernel - FMA OPS DISABLED]
Jams in i: 2
Jams in j: 2
Number of tests    4
Number of stencils 3937248
Ni: 254 Nj: 254 Nk: 64 
Total memory allocation ~ 66064384 B
total flops:       2.086741e-01 G 
total time(s)    : 2.933285e-01
time/test(s)     : 7.333212e-02
******************************************************
******************************************************
******************************************************
GFlop/s     AVG: 2.845603e+00  
MStencil/s  AVG: 53.690632  
******************************************************
GFlop/s     MAX: 2.866058e+00  
MStencil/s  MAX: 54.076572  
******************************************************
GFlop/s     MIN: 2.806821e+00  
MStencil/s  MIN: 52.958880  
******************************************************
==========================================================================
make MUTANT_KERNEL=bagm_mute_27pt DRIVER_OPTS=" -DVERIFY=0 -DN_TESTS=4 -DPRINT_TIME_DETAILS=1 -DN_I=254 -DN_J=254 -DN_K=64 -DFLUSH_ALL_CACHES=1 -DN_CYCLES=1 " BUILDER_OPTS="-v 0 -i 1 --no_fma 1 --unroll_i 2 --unroll_j 3 " -B
--------------------------------------------------------------------------
mkdir -p build
./build.py -k bagm_mute_27pt -v 0 -i 1 --no_fma 1 --unroll_i 2 --unroll_j 3 
gen_header_defines: 0
gen_initialize_registers: 0
gen_inner_iter: 181
gen_prologue: 54
/bgsys/drivers/ppcfloor/comm/bin/mpixlc_r -O3 -qstrict -Ibuild -o build/driver.o -c drivers/driver.c -DVERIFY=0 -DN_TESTS=4 -DPRINT_TIME_DETAILS=1  -DN_I=254 -DN_J=254 -DN_K=64 -DFLUSH_ALL_CACHES=1 -DN_CYCLES=1  -qnosmp
/bgsys/drivers/ppcfloor/comm/bin/mpixlc_r -O3 -qstrict -o build/c_kernel.o -c drivers/c_kernel.c -DVERIFY=0 -DN_TESTS=4 -DPRINT_TIME_DETAILS=1  -DN_I=254 -DN_J=254 -DN_K=64 -DFLUSH_ALL_CACHES=1 -DN_CYCLES=1 
/bgsys/drivers/ppcfloor/comm/bin/mpixlf90_r -O5 -qextname -o build/fortran_kernel.o -c drivers/fortran_kernel.F90
/bgsys/drivers/ppcfloor/comm/bin/mpixlc_r -O3 -qstrict -o build/bagm_mute_27pt build/driver.o build/c_kernel.o build/fortran_kernel.o  
--------------------------------------------------------------------------
/bgsys/drivers/ppcfloor/bin/mpirun -exp_env LD_LIBRARY_PATH -exp_env PYTHONPATH -env BG_MAPPING=TXYZ -np 4 -mode VN ./build/bagm_mute_27pt  
--------------------------------------------------------------------------

******************************************************
TEST#01 time: 7.381718e-02
TEST#02 time: 7.289337e-02
TEST#03 time: 7.594043e-02
TEST#04 time: 7.600083e-02
******************************************************
Rank 0 of 4 <0,0,0,0>  R00-M1-N00-J23: Participating process 0 of 4


Rank 1 of 4 <0,0,0,1>  R00-M1-N00-J23: Participating process 1 of 4

Rank 3 of 4 <0,0,0,3>  R00-M1-N00-J23: Participating process 3 of 4
Rank 2 of 4 <0,0,0,2>  R00-M1-N00-J23: Participating process 2 of 4
******************************************************
Actions: 
L3 flushed: 1
L1 flushed: 0
L1 touched: 0

******************************************************
[bagm-mute-27-point 2x3 jam Kernel - FMA OPS DISABLED]
Jams in i: 2
Jams in j: 3
Number of tests    4
Number of stencils 3937248
Ni: 254 Nj: 254 Nk: 64 
Total memory allocation ~ 66064384 B
total flops:       2.086741e-01 G 
total time(s)    : 2.986518e-01
time/test(s)     : 7.466295e-02
******************************************************
******************************************************
******************************************************
GFlop/s     AVG: 2.794882e+00  
MStencil/s  AVG: 52.733623  
******************************************************
GFlop/s     MAX: 2.862731e+00  
MStencil/s  MAX: 54.013800  
******************************************************
GFlop/s     MIN: 2.745683e+00  
MStencil/s  MIN: 51.805332  
******************************************************
